<svg xmlns="http://www.w3.org/2000/svg" width="137" height="93" viewBox="0 0 137 93">
    <g fill="none" fill-rule="evenodd">
        <path fill="#EEB500" fill-rule="nonzero" stroke="#344782" stroke-width="2" d="M77.908 55.96c2.342.469 5.153.937 7.963 1.171 3.513.469 7.26.469 11.007.469 10.772 0 20.374-1.405 27.4-3.747 3.278-.937 5.854-2.108 7.962-3.513v4.215c0 2.342-3.747 4.684-9.367 6.558-6.558 2.107-15.691 3.512-25.995 3.512-4.918 0-9.368-.234-13.583-.936-3.045-.469-5.855-.937-8.431-1.64 1.171-1.873 2.108-3.98 3.044-6.089zM71.82 65.98c3.044.936 6.791 1.638 10.772 2.107 4.45.702 9.368.937 14.286.937 10.772 0 20.374-1.406 27.4-3.747 3.278-.937 5.854-2.342 7.962-3.513v4.215c0 2.342-3.747 4.684-9.367 6.557-6.558 2.108-15.691 3.513-25.995 3.513-7.26 0-14.052-.702-19.672-1.873-3.981-.937-7.494-2.108-10.07-3.279.468-.468 1.17-.937 1.64-1.64 1.17-.936 2.107-2.107 3.044-3.278zm-9.292 8.392c3.279 2.107 7.963 3.747 13.349 4.918 6.089 1.17 13.349 1.873 20.843 1.873 10.772 0 20.374-1.405 27.4-3.747C132.082 74.84 137 70.86 137 66.176V18.4c0-4.684-4.918-8.665-12.88-11.241-7.026-2.342-16.628-3.747-27.4-3.747-6.792 0-13.35.468-18.97 1.64-5.152.936-9.601 2.341-13.114 3.98C57.844 3.881 49.414.837 40.28.837c-11.24 0-21.31 4.45-28.57 11.71C4.45 19.805 0 29.876 0 41.116a40.01 40.01 0 0 0 11.71 28.337c7.26 7.26 17.33 11.71 28.57 11.71 8.197 0 15.925-2.343 22.248-6.792zm17.02-41.743l6.323.703c3.513.468 7.26.468 11.007.468 10.772 0 20.374-1.405 27.4-3.747 3.278-.937 5.854-2.108 7.962-3.513v4.216c0 2.342-3.747 4.683-9.367 6.557-6.558 2.108-15.691 3.513-25.995 3.513-3.279 0-6.558-.234-9.368-.469-2.576-.234-4.684-.468-7.025-.702 0-2.576-.469-4.918-.937-7.026zm.937 11.424c2.107.468 4.215.703 6.557.937 3.278.234 6.557.234 9.836.234 10.772 0 20.374-1.405 27.4-3.747 3.278-.937 5.854-2.108 7.962-3.513v4.216c0 2.341-3.747 4.683-9.367 6.557-6.558 2.107-15.691 3.513-25.995 3.513-3.747 0-7.26-.235-10.539-.469-2.342-.234-4.684-.702-7.025-.937.702-2.341.936-4.45 1.17-6.791zm-2.577-17.1c-1.873-5.386-5.152-10.07-8.899-14.05 2.576-1.172 5.855-2.108 9.836-2.811 5.152-.937 11.475-1.64 18.033-1.64 10.304 0 19.437 1.406 25.995 3.513 5.62 1.874 9.367 4.216 9.367 6.558 0 2.342-3.747 4.683-9.367 6.557-6.558 2.108-15.691 3.513-25.995 3.513-3.747 0-7.26-.234-10.539-.469-3.044-.234-5.854-.702-8.43-1.17zm-62.74-11.052C21.493 9.578 30.158 5.597 39.994 5.597c9.602 0 18.5 3.98 24.824 10.304C71.14 22.458 75.12 31.123 75.12 40.959c0 9.602-3.981 18.5-10.304 24.824-6.323 6.323-15.222 10.304-24.824 10.304-9.836 0-18.501-3.98-24.824-10.304C8.612 59.46 4.865 50.561 4.865 40.959c0-9.836 3.747-18.5 10.304-25.058z"/>
        <text fill="#FFF" font-family="Circe-Bold, Circe" font-size="21" font-weight="bold" opacity=".8">
            <tspan x="21.674" y="45">x</tspan>
        </text>
        <text fill="#FFF" font-family="Circe-Regular, Circe" font-size="44">
            <tspan x="33.906" y="56">2</tspan>
        </text>
    </g>
</svg>
