<svg xmlns="http://www.w3.org/2000/svg" width="140" height="140" viewBox="0 0 140 140">
    <path fill="#FFF" fill-rule="evenodd" d="M1.68 39.847c-.245 0-.483-.053-.706-.158a1.67 1.67 0 0 1-.871-.949 1.67 1.67 0 0 1 .056-1.287A77.135 77.135 0 0 1 37.458.158 1.67 1.67 0 0 1 38.167 0c.652 0 1.251.382 1.527.973.19.406.209.864.055 1.286-.154.422-.463.759-.87.948A73.771 73.771 0 0 0 3.208 38.875c-.275.59-.874.972-1.527.972zm64.85 26.877c-.863.76-1.359 1.853-1.397 3.079a5.143 5.143 0 0 0 1.45 3.704l.022.023a5.167 5.167 0 0 0 3.725 1.472c1.225-.038 2.32-.534 3.081-1.395L113.52 28.15l-1.536-1.536-45.455 40.11zm3.646 11.645a8.478 8.478 0 0 1-5.927-2.436l-.034-.035a8.436 8.436 0 0 1-2.446-6.2c.067-2.165.967-4.116 2.532-5.496l62.976-55.569a1.68 1.68 0 0 1 2.303.072l1.85 1.849c.626.627.658 1.638.072 2.303L75.935 75.832c-1.383 1.566-3.336 2.466-5.5 2.533a8.143 8.143 0 0 1-.259.004zm-.303 22.842c-17.283 0-31.343-14.06-31.343-31.342 0-.928.755-1.683 1.684-1.683.927 0 1.682.755 1.682 1.683 0 15.427 12.55 27.978 27.977 27.978.928 0 1.682.754 1.682 1.681 0 .928-.754 1.683-1.682 1.683zM67.054 8.206c-14.352.649-28.12 6.363-38.768 16.088l-.841.768 13.371 13.37.766-.676c7.201-6.351 16.05-10.024 25.589-10.62l1.02-.064V8.155l-1.137.051zM24.297 28.281C14.573 38.93 8.86 52.698 8.211 67.049l-.051 1.137h18.917l.064-1.02c.596-9.541 4.269-18.39 10.62-25.588l.676-.766L25.065 27.44l-.768.84zM8.211 72.689c.649 14.351 6.362 28.119 16.087 38.766l.767.841 13.372-13.372-.676-.766C31.41 90.96 27.737 82.111 27.14 72.571l-.064-1.02H8.16l.051 1.138zm104.394-.118c-.597 9.54-4.269 18.388-10.62 25.59l-.676.765 13.371 13.371.768-.84c9.724-10.647 15.438-24.415 16.088-38.768l.051-1.137H112.67l-.064 1.02zm-85.16 42.105l.84.767c10.649 9.726 24.417 15.44 38.77 16.088l1.136.051v-18.919l-1.02-.063c-9.541-.597-18.39-4.269-25.589-10.62l-.766-.676-13.371 13.372zm70.717-12.696c-7.198 6.351-16.046 10.023-25.587 10.62l-1.02.063v18.92l1.137-.052c14.353-.648 28.121-6.361 38.768-16.086l.84-.768-13.371-13.373-.767.676zm-28.289 32.98c-17.363 0-33.693-6.755-45.982-19.02l-.089-.091c-12.246-12.27-19-28.571-19.02-45.902V69.79c.02-17.336 6.777-33.64 19.028-45.91l.06-.06C36.173 11.536 52.507 4.778 69.873 4.778c13.088 0 25.71 3.871 36.5 11.196.768.521.97 1.57.45 2.337a1.684 1.684 0 0 1-2.338.447A61.5 61.5 0 0 0 72.692 8.206l-1.137-.051v18.917l1.021.063a42.356 42.356 0 0 1 16.306 4.36c.403.2.703.544.847.97.143.425.112.882-.088 1.285a1.676 1.676 0 0 1-2.255.759c-5.406-2.683-11.224-4.06-17.295-4.09h-.044l-.042.002a1.74 1.74 0 0 1-.264 0l-.043-.003h-.043c-10.44.057-20.267 4.167-27.67 11.572-7.403 7.406-11.51 17.234-11.562 27.674v.038l.003.038a1.825 1.825 0 0 1 0 .258l-.003.038v.038c.053 10.441 4.16 20.27 11.564 27.677 7.405 7.405 17.233 11.513 27.676 11.568h.038l.038-.003a2.422 2.422 0 0 1 .268 0l.038.003h.038c10.44-.055 20.266-4.16 27.67-11.562 7.404-7.401 11.513-17.226 11.57-27.663l.001-.05-.004-.049a1.469 1.469 0 0 1-.004-.126c0-.042 0-.084.004-.125l.004-.049v-.049a39.1 39.1 0 0 0-3.693-16.464 1.685 1.685 0 0 1 1.522-2.396c.651 0 1.25.38 1.526.97a42.402 42.402 0 0 1 3.929 15.41l.063 1.021h18.916l-.051-1.136c-.501-11.116-4-21.889-10.119-31.154a1.685 1.685 0 0 1 1.4-2.61c.569 0 1.095.283 1.409.757 7.025 10.635 10.739 23.024 10.739 35.825-.002 17.388-6.773 33.734-19.066 46.024-12.293 12.296-28.639 19.067-46.026 19.067zm31.706 4.776a1.689 1.689 0 0 1-1.527-.971 1.685 1.685 0 0 1 .814-2.236 73.784 73.784 0 0 0 35.672-35.666 1.691 1.691 0 0 1 1.527-.974c.245 0 .483.054.709.158.407.19.716.527.87.95.153.421.133.878-.056 1.286a77.144 77.144 0 0 1-37.3 37.295 1.665 1.665 0 0 1-.709.158z"/>
</svg>
