<svg xmlns="http://www.w3.org/2000/svg" width="140" height="150" viewBox="0 0 140 150">
    <g fill="#FFF" fill-rule="evenodd">
        <path d="M43.191 137.151a1.493 1.493 0 0 1 0-2.988 1.493 1.493 0 0 1 0 2.988M66.292 32.974a1.49 1.49 0 0 1-1.111.827l-9.04 1.413 6.145 6.01c.35.342.51.837.428 1.321l-1.444 8.447 7.564-3.988a1.493 1.493 0 0 1 1.385 0l7.561 3.987-1.443-8.446c-.084-.485.077-.979.428-1.322l6.117-5.981-8.455-1.233a1.484 1.484 0 0 1-1.138-.852l-3.465-7.528-3.532 7.345zm13.466 22.242c-.24 0-.48-.06-.693-.172l-9.539-5.03-9.541 5.03a1.49 1.49 0 0 1-2.162-1.574l1.822-10.655-7.717-7.546a1.49 1.49 0 0 1-.379-1.525 1.483 1.483 0 0 1 1.19-1.022l11.21-1.752 4.564-9.49c.25-.52.767-.844 1.349-.844a1.498 1.498 0 0 1 1.345.867l4.448 9.666 10.641 1.55a1.48 1.48 0 0 1 1.203 1.018 1.487 1.487 0 0 1-.377 1.531l-7.717 7.547 1.822 10.654a1.49 1.49 0 0 1-1.469 1.747zM55.106 137.151a1.493 1.493 0 0 1 0-2.988h41.702a1.493 1.493 0 0 1 0 2.988H55.106z"/>
        <path d="M106.586 52.48s-.017.181-.02.231l-.246 3.291 2.628-1.987c9.89-7.483 15.928-19.4 16.151-31.877l.028-1.52h-16.272l-2.269 31.863zM14.9 22.138c.218 12.683 6.105 24.306 16.152 31.886l2.64 1.992-.279-3.536-2.268-31.862H14.873l.027 1.52zM105.114 60.5a36.716 36.716 0 0 1-3.473 7.97l-2.166 3.7 3.989-1.55c9.939-3.863 18.361-10.539 24.357-19.304 6.019-8.8 9.2-19.144 9.2-29.913v-8.33c0-2.472-1.962-4.408-4.468-4.408h-22.847l-.638 8.964h17.528c.821 0 1.49.67 1.49 1.494V21.4c0 15.742-8.397 30.28-21.938 38.037h-.715l-.32 1.063zM7.447 8.665c-2.506 0-4.468 1.936-4.468 4.408v8.342c0 10.768 3.181 21.111 9.2 29.91 5.996 8.765 14.419 15.439 24.358 19.3l3.988 1.55-2.166-3.699a36.713 36.713 0 0 1-3.475-7.977l-.174-.578-.525-.295c-13.737-7.706-22.27-22.347-22.27-38.208v-2.295c0-.824.668-1.494 1.49-1.494h17.527l-.638-8.964H7.447zm71.49 69.024a7.43 7.43 0 0 1 4.976 1.92l.769.692.916-.48a33.656 33.656 0 0 0 8.467-6.297 33.868 33.868 0 0 0 9.55-21.256l3.508-49.28H32.877l3.507 49.28A33.778 33.778 0 0 0 54.4 79.82l.918.48.77-.695a7.408 7.408 0 0 1 4.977-1.916h17.872zm-17.873 2.988c-2.464 0-4.468 2.01-4.468 4.482 0 2.472 2.004 4.482 4.468 4.482h17.872c2.464 0 4.468-2.01 4.468-4.482 0-2.471-2.004-4.482-4.468-4.482H61.064zm1.49 21.813h14.893v-9.86H62.553v9.86zm-13.405 2.988c-2.464 0-4.468 2.01-4.468 4.482v11.355h50.638V109.96c0-2.471-2.004-4.482-4.468-4.482H49.15zm-11.915 18.825c-2.464 0-4.468 2.01-4.468 4.482v18.227h74.468v-18.227c0-2.472-2.004-4.482-4.468-4.482H37.234zM31.277 150c-.822 0-1.49-.67-1.49-1.494v-19.721c0-4.12 3.34-7.47 7.447-7.47h4.468V109.96c0-4.12 3.34-7.47 7.447-7.47h10.425v-9.936l-.991-.353a7.488 7.488 0 0 1-4.966-7.042c0-.372.033-.766.097-1.17l.167-1.059-.945-.498a36.736 36.736 0 0 1-8.06-5.768l-.248-.234-5.702-1.797c-11.367-3.588-21.101-10.578-28.15-20.215C3.726 44.781 0 33.37 0 21.415v-8.342c0-4.078 3.34-7.396 7.447-7.396H30.08l-.29-4.076A1.492 1.492 0 0 1 31.276 0h77.447a1.492 1.492 0 0 1 1.486 1.602l-.29 4.076h22.634c4.106 0 7.447 3.318 7.447 7.396v8.33c0 11.957-3.728 23.372-10.78 33.012s-16.79 16.631-28.161 20.218l-5.207 1.64-.44.117-.274.26a36.587 36.587 0 0 1-8.073 5.784l-.945.498.167 1.058c.064.405.096.798.096 1.17 0 3.163-1.995 5.995-4.964 7.046l-.993.352v9.932H90.85c4.106 0 7.447 3.35 7.447 7.47v11.355h4.468c4.106 0 7.447 3.35 7.447 7.47v19.72c0 .825-.668 1.495-1.49 1.495H31.277z"/>
    </g>
</svg>
