<svg xmlns="http://www.w3.org/2000/svg" width="20" height="20" viewBox="0 0 20 20">
    <g fill="none" fill-rule="evenodd">
        <path fill="#FFF" d="M2 8V4a2 2 0 0 1 2-2h4v6H2zm0 4h6v6H4a2 2 0 0 1-2-2v-4zm16-4h-6V2h4a2 2 0 0 1 2 2v4zm0 4v4a2 2 0 0 1-2 2h-4v-6h6z"/>
        <path stroke="#FFF" stroke-width="2" d="M11 1h3c1.639 0 3.097-1.903 2-3-1-1-2.5-.5-3 0-1.308 1.308-1.975 2.308-2 3zM9.381 1h-3c-1.639 0-3.097-1.903-2-3 1-1 2.5-.5 3 0 1.309 1.308 1.975 2.308 2 3z"/>
    </g>
</svg>
