<?xml version="1.0" encoding="UTF-8"?>
<svg width="168px" height="130px" viewBox="0 0 168 130" version="1.1" xmlns="http://www.w3.org/2000/svg" xmlns:xlink="http://www.w3.org/1999/xlink">
    <!-- Generator: sketchtool 49 (51002) - http://www.bohemiancoding.com/sketch -->
    <title>F7B68751-3932-4A3C-870C-6F2EA50C54D1</title>
    <desc>Created with sketchtool.</desc>
    <defs>
        <path d="M96,78 L160,78 L160,120 C160,125.522847 155.522847,130 150,130 L106,130 C100.477153,130 96,125.522847 96,120 L96,78 Z" id="path-1"></path>
        <rect id="path-2" x="88" y="68" width="80" height="22" rx="10"></rect>
        <rect id="path-3" x="116" y="68" width="24" height="62"></rect>
    </defs>
    <g id="Design" stroke="none" stroke-width="1" fill="none" fill-rule="evenodd">
        <g id="Участвую" transform="translate(-1176.000000, -2360.000000)">
            <g id="Group-9" transform="translate(1176.000000, 2360.000000)">
                <g id="Page-1-Copy" fill="#FFFFFF">
                    <path d="M64.9999476,19.3951613 C61.9373468,19.3951613 59.3638185,21.6890323 59.0139194,24.7311895 L58.9879718,24.9568548 L59.0107742,25.1825202 C59.0244032,25.3180242 59.0233548,25.4551008 59.0078911,25.5900806 L58.9806331,25.8204637 L59.004746,26.0511089 C59.3255524,29.1299597 61.9030121,31.4516129 64.9999476,31.4516129 C68.096621,31.4516129 70.6740806,29.1299597 70.9954113,26.051371 L71.0195242,25.8204637 L70.9922661,25.5900806 C70.9765403,25.4545766 70.9754919,25.3188105 70.9893831,25.1864516 L71.0127097,24.9584274 L70.9865,24.7306653 C70.6355524,21.6890323 68.0620242,19.3951613 64.9999476,19.3951613 Z M33.5449274,15.7250202 C34.2460363,15.7250202 34.8758548,16.1139718 35.1893226,16.7406452 L36.0193831,18.400504 C39.4352903,25.2323185 45.9599274,30.0051008 53.4731935,31.1677621 L56.8518831,31.6906452 L55.7861976,28.4419556 C55.5925081,27.8522379 55.4556935,27.2397177 55.3794234,26.6214315 L55.3042016,26.0089113 L54.9089597,25.5350403 C51.0619032,20.921875 48.2362379,15.7053629 45.8899476,11.1781653 C43.4894032,6.54665323 38.7603911,3.66935484 33.5483347,3.66935484 C25.8885565,3.66935484 19.6572056,9.90096774 19.6572056,17.5604839 C19.6572056,25.22 25.8885565,31.4516129 33.5483347,31.4516129 L42.4745645,31.4516129 L38.5659153,27.8189516 C36.1614395,25.5843145 34.2001694,22.9675403 32.7371452,20.0412298 L31.9068226,18.3808468 C31.4547056,17.4763508 31.8229516,16.3721371 32.7277097,15.919496 C32.985875,15.7905444 33.2608145,15.7250202 33.5449274,15.7250202 Z M96.4515605,3.66935484 C91.239504,3.66935484 86.5104919,6.54665323 84.1099476,11.1779032 C81.762871,15.7061492 78.9366815,20.9234476 75.0909355,25.5355645 L74.6959556,26.0089113 L74.6204718,26.6209073 C74.5436774,27.2418145 74.407125,27.8540726 74.2139597,28.4409073 L73.145129,31.6914315 L76.5267016,31.1680242 C84.0399677,30.0053629 90.5646048,25.2323185 93.9805121,18.400504 L94.8105726,16.740121 C95.1235161,16.1139718 95.7533347,15.7250202 96.4544435,15.7250202 C96.7385565,15.7250202 97.0137581,15.7905444 97.2719234,15.919496 C98.1769435,16.371875 98.5449274,17.4760887 98.0925484,18.3811089 L97.26275,20.0409677 C95.7994637,22.9672782 93.8381935,25.5843145 91.4337177,27.8189516 L87.5250685,31.4516129 L96.4515605,31.4516129 C104.111339,31.4516129 110.34269,25.22 110.34269,17.5604839 C110.34269,9.90096774 104.111339,3.66935484 96.4515605,3.66935484 Z M9.69752823,35.1209677 C6.37335484,35.1209677 3.66930242,37.8252823 3.66930242,41.1491935 L3.66930242,49.0120968 C3.66930242,52.3360081 6.37335484,55.0403226 9.69752823,55.0403226 L47.4394637,55.0403226 L47.4394637,35.1209677 L9.69752823,35.1209677 Z M82.5604315,55.0403226 L120.302367,55.0403226 C123.62654,55.0403226 126.330593,52.3360081 126.330593,49.0120968 L126.330593,41.1491935 C126.330593,37.8252823 123.62654,35.1209677 120.302367,35.1209677 L82.5604315,35.1209677 L82.5604315,55.0403226 Z M11.5322056,120.302419 C11.5322056,123.570242 14.4126492,126.330645 17.8225282,126.330645 L47.4394637,126.330645 L47.4394637,58.7096774 L11.5322056,58.7096774 L11.5322056,120.302419 Z M64.9999476,118.467742 C66.011379,118.467742 66.834625,119.290988 66.834625,120.302419 L66.834625,126.330645 L78.8910766,126.330645 L78.8910766,35.1209677 L66.834625,35.1209677 L66.834625,41.1491935 C66.834625,42.1608871 66.011379,42.983871 64.9999476,42.983871 C63.9885161,42.983871 63.1652702,42.1608871 63.1652702,41.1491935 L63.1652702,35.1209677 L51.1088185,35.1209677 L51.1088185,126.330645 L63.1652702,126.330645 L63.1652702,120.302419 C63.1652702,119.290988 63.9885161,118.467742 64.9999476,118.467742 Z M82.5604315,126.330645 L112.177367,126.330645 C115.587246,126.330645 118.46769,123.570242 118.46769,120.302419 L118.46769,58.7096774 L82.5604315,58.7096774 L82.5604315,126.330645 Z M17.8225282,130 C12.4238589,130 7.86285081,125.559032 7.86285081,120.302419 L7.86285081,58.651754 L6.46692339,58.1566532 C2.59889919,56.7851008 -5.24193548e-05,53.1102419 -5.24193548e-05,49.0120968 L-5.24193548e-05,41.1491935 C-5.24193548e-05,35.8018952 4.35022984,31.4516129 9.69752823,31.4516129 L22.0346855,31.4516129 L19.5088589,28.0941532 C17.2055524,25.0326008 15.9878508,21.3899798 15.9878508,17.5604839 C15.9878508,7.87758065 23.8654315,0 33.5483347,0 C40.1363992,0 46.1135161,3.63606855 49.1478105,9.48921371 C50.7015202,12.4878629 52.4190403,15.6846573 54.4450484,18.7462097 L55.9479113,21.0170161 L57.7592621,18.9836694 C59.603375,16.9133669 62.2424274,15.7258065 64.9999476,15.7258065 C67.7574677,15.7258065 70.3967823,16.9133669 72.2408952,18.9836694 L74.052246,21.0172782 L75.5551089,18.7459476 C77.5787581,15.6875403 79.2970645,12.4894355 80.8520847,9.48921371 C83.886379,3.63606855 89.863496,0 96.4515605,0 C106.134464,0 114.012044,7.87758065 114.012044,17.5604839 C114.012044,21.390504 112.794343,25.0328629 110.491036,28.0941532 L107.964948,31.4516129 L120.302367,31.4516129 C125.649665,31.4516129 129.999948,35.8018952 129.999948,41.1491935 L129.999948,49.0120968 C129.999948,53.1102419 127.400996,56.7851008 123.532972,58.1566532 L122.137044,58.651754 L122.137044,120.302419 C122.137044,125.559032 117.576036,130 112.177367,130 L17.8225282,130 Z" id="Fill-1"></path>
                </g>
                <g id="Rectangle-12">
                    <use fill="#04213E" fill-rule="evenodd" xlink:href="#path-1"></use>
                    <path stroke="#FFFFFF" stroke-width="4" d="M98,80 L98,120 C98,124.418278 101.581722,128 106,128 L150,128 C154.418278,128 158,124.418278 158,120 L158,80 L98,80 Z"></path>
                </g>
                <g id="Rectangle-13">
                    <use fill="#04213E" fill-rule="evenodd" xlink:href="#path-2"></use>
                    <rect stroke="#FFFFFF" stroke-width="4" x="90" y="70" width="76" height="18" rx="9"></rect>
                </g>
                <g id="Rectangle-14">
                    <use fill="#04213E" fill-rule="evenodd" xlink:href="#path-3"></use>
                    <rect stroke="#FFFFFF" stroke-width="4" x="118" y="70" width="20" height="58"></rect>
                </g>
                <rect id="Rectangle-15" fill="#FFFFFF" x="126" y="69" width="4" height="16" rx="2"></rect>
                <rect id="Rectangle-15-Copy" fill="#FFFFFF" x="126" y="113" width="4" height="16" rx="2"></rect>
                <path d="M130,69 C136.228956,58.3333333 141.447811,53 145.656566,53 C151.969697,53 155,57.5 155,60.5 C155,63.5 152.977559,69 145.656566,69 C140.775903,69 135.557048,69 130,69 Z" id="Path-3-Copy-2" stroke="#FFFFFF" stroke-width="4" fill="#04213E"></path>
                <path d="M126,69 L110.343434,69 C103.022441,69 101,63.5 101,60.5 C101,57.5 104.030303,53 110.343434,53 C114.552189,53 119.771044,58.3333333 126,69 Z" id="Path-3-Copy-3" stroke="#FFFFFF" stroke-width="4" fill="#04213E"></path>
                <circle id="Oval-7" stroke="#FFFFFF" stroke-width="4" fill="#04213E" cx="127.5" cy="62.5" r="5.5"></circle>
            </g>
        </g>
    </g>
</svg>