<svg width="19" height="18" viewBox="0 0 19 18" fill="none" xmlns="http://www.w3.org/2000/svg">
<path d="M13.7254 12.8964L18.4153 17M13.8971 7.44856C13.8971 11.01 11.01 13.8971 7.44856 13.8971C3.88712 13.8971 1 11.01 1 7.44856C1 3.88712 3.88712 1 7.44856 1C11.01 1 13.8971 3.88712 13.8971 7.44856Z" stroke="white" stroke-width="1.5"/>
</svg>
