<?xml version="1.0" encoding="UTF-8" standalone="no"?>
<svg width="194px" height="442px" viewBox="0 0 194 442" version="1.1" xmlns="http://www.w3.org/2000/svg" xmlns:xlink="http://www.w3.org/1999/xlink">
    <!-- Generator: Sketch 50.2 (55047) - http://www.bohemiancoding.com/sketch -->
    <title>Group 3</title>
    <desc>Created with Sketch.</desc>
    <defs></defs>
    <g id="Page-1" stroke="none" stroke-width="1" fill="none" fill-rule="evenodd">
        <g id="Group-3" transform="translate(1.000000, 4.000000)">
            <g id="25" transform="translate(3.000000, 294.000000)" fill="#FFFFFF">
                <polygon id="Path-9" fill-opacity="0.5" points="0.041015625 23.8305664 0.743164062 115.856445 91.2783203 139.836914 186.206055 110.359375 186.206055 18.8447266 93.9287109 50.1083984"></polygon>
                <polygon id="Path-8" fill-opacity="0.7" points="1.39355469 24.1865234 93.965332 50.0761719 186.515625 18.7636719 93.9545898 0.874023438"></polygon>
            </g>
            <g id="50" opacity="0.5" transform="translate(3.000000, 214.000000)" fill="#FFFFFF">
                <polygon id="Path-9" fill-opacity="0.5" points="0.041015625 23.8305664 0.743164062 195.856445 91.2783203 219.836914 186.206055 190.359375 186.206055 18.8447266 93.9287109 50.1083984"></polygon>
                <polygon id="Path-8" fill-opacity="0.7" points="1.39355469 24.1865234 93.965332 50.0761719 186.515625 18.7636719 93.9545898 0.874023438"></polygon>
            </g>
            <g id="75" opacity="0.5" transform="translate(3.000000, 122.000000)" fill="#FFFFFF">
                <polygon id="Path-9" fill-opacity="0.5" points="0.041015625 23.8305664 0.743164062 286.856445 91.2783203 310.836914 186.206055 281.359375 186.206055 18.8447266 93.9287109 50.1083984"></polygon>
                <polygon id="Path-8" fill-opacity="0.7" points="1.39355469 24.1865234 93.965332 50.0761719 186.515625 18.7636719 93.9545898 0.874023438"></polygon>
            </g>
            <g id="100" opacity="0.5" transform="translate(3.000000, 8.000000)" fill="#FFFFFF">
                <polygon id="Path-9" fill-opacity="0.5" points="0.041015625 40.8305664 0.743164062 400.856445 91.2783203 424.836914 186.206055 395.359375 186.206055 1.84472656 93.9287109 51.1083984"></polygon>
                <path d="M0.44921875,39.2949219 L93.965332,50.0761719 L185.984375,0.974609375 L93.965332,0.974609375 C95.7276583,16.5368955 94.3733288,25.2803851 89.9023437,27.2050781 C87.0806041,28.4197953 71.1367187,39.2949219 47.6328125,23.8486328 C46.0023081,22.7770985 49.5992885,9.68999745 43.7792969,11.3398437 C38.4309936,12.8559762 23.9876343,22.1743356 0.44921875,39.2949219 Z" id="Path-8" fill-opacity="0.7"></path>
            </g>
            <g id="Group" stroke="#FFFFFF" stroke-width="7">
                <polygon id="Path-2" points="189.492188 9.19921875 96.7304688 56.6601562 96.7304688 432.890625 189.492188 404.710937"></polygon>
                <polygon id="Path-3" points="98.6914062 55.684082 171.03125 78.015625 187.34375 11.4335938"></polygon>
                <path d="M73.6938477,23.7368421 C86.7795984,23.7368421 97.3876953,18.423169 97.3876953,11.8684211 C97.3876953,5.3136731 86.7795984,0 73.6938477,0 C60.6080969,0 50,5.3136731 50,11.8684211 C50,18.423169 60.6080969,23.7368421 73.6938477,23.7368421 Z" id="Oval"></path>
                <path d="M50,13 L50,31.3722988 C54.7233073,37.7907663 62.4545898,41 73.1938477,41 C83.9331055,41 91.9977214,38.1240996 97.3876953,32.3722988 L97.3876953,13" id="Path-4"></path>
                <path d="M95.6611328,7.08496094 L192.5,7.5" id="Path-5"></path>
                <path d="M1.5,48.5 L51.5,15.5" id="Path-6"></path>
                <polyline id="Path-7" points="96.6328125 58.5390625 3.8125 49.1738281 3.8125 409.275391 93.9921875 433.972656"></polyline>
            </g>
            <g id="logo" transform="translate(12.000000, 191.000000)" fill="#FFFFFF" fill-rule="nonzero">
                <path d="M66.0434684,27.8814033 L64.3236114,28.4611048 L64.7101847,29.8401741 L66.437931,29.2542428 L67.0217357,31.3072674 L62.0278389,32.9793384 L61.4440342,30.9364272 L63.3216763,30.3108264 L62.8956567,28.9594735 L61.0574609,29.5787271 L60.4736562,27.5317071 L65.467553,25.8411251 L66.0434684,27.8814033 Z M50.2649636,11.4322438 L50.7067617,10.5833102 L51.5509117,11.059187 L49.7048267,14.6295708 L51.4404622,15.6125393 L53.9808015,10.7004508 L49.8626117,8.40508573 L49.0736865,9.97462557 C48.6003313,10.8817053 48.0875299,12.1140057 47.4248327,11.7420058 C47.2963416,11.6658387 47.1748889,11.5775139 47.0619271,11.4780901 L46.4150084,12.7367957 C46.6623368,12.9710062 46.9319109,13.1780468 47.2197121,13.3548203 C48.7975626,14.2281933 49.4602598,13.008611 50.2649636,11.4322438 Z M36.2694298,62.0334844 C28.8271829,61.8622464 21.8440705,57.965852 17.5735603,51.6506199 C13.3030502,45.3962855 12.2858114,37.4768602 14.8501095,30.3659076 C15.3155754,30.963849 15.58381,31.3310473 16.42796,32.3533252 C17.27211,33.3775976 18.053146,34.6941714 19.5836609,35.1959076 C21.3429642,35.7795542 22.6683586,35.0951689 24.1199811,35.389675 C25.1929194,35.6051656 26.0528479,36.8055309 26.6839881,37.5365131 C26.7107674,37.3258554 26.7107674,37.1125229 26.6839881,36.9019431 C26.5262031,35.9424103 26.3920858,35.2759083 26.2579685,34.5445566 C26.1786487,34.4646045 26.084844,34.4015101 25.9818446,34.3588284 C25.682053,34.2383438 25.3033689,34.3620182 24.9799096,34.2498619 C25.0509129,33.737931 25.618939,33.2798185 25.8792844,32.7905897 L25.9345091,32.6357884 C25.7914913,31.9892381 25.7568065,31.3216207 25.8319488,30.6614522 C24.1515381,31.8770058 23.2048278,32.6215488 20.6013745,31.0392616 C18.1399277,29.5455859 15.2682399,29.7998858 16.2701749,28.8492571 C17.4914989,27.7022353 19.2198415,27.3131901 20.7828273,27.8376182 C22.5026843,28.5453992 23.8280787,29.5764423 25.8082811,28.7598438 C26.010492,28.6771292 26.2189987,28.6122377 26.431532,28.5658873 C26.6129848,28.3360659 26.8338839,28.3742033 27.1573432,28.2728099 C27.1573432,28.2728099 27.7017017,28.2664979 28.3722881,29.6118039 C28.8456433,30.5449186 28.8456433,32.6164062 28.77464,34.5984973 C28.7036367,36.5802699 26.9995582,44.600322 26.0291802,45.0976364 C25.8680577,45.1877074 25.6911838,45.2443337 25.5084895,45.2643545 C25.2781648,45.3358576 25.0580555,45.4378749 24.8536815,45.5678308 L24.2540984,46.1552691 C23.0949947,47.2113245 22.8367327,48.9697048 23.6387367,50.3495487 C24.1436488,51.4839368 24.02531,52.3581744 24.3566586,53.499364 C24.6091147,54.3883547 26.2185222,56.2388231 26.4709783,55.162144 C26.7234344,54.0848452 24.8931278,54.0037744 25.0982484,52.4156969 C25.1850301,51.6049013 25.5084895,51.3172301 25.3033689,50.5344576 C25.1692516,49.9722379 24.3882156,48.8990793 24.8931278,48.4097929 C25.2481442,47.9345785 25.8635059,48.0305824 26.4709783,48.18356 C26.8145753,48.2069722 27.1554601,48.2652545 27.4886918,48.357601 C27.8641052,48.4229952 28.10928,48.4693189 28.3565096,48.4977115 C28.6544787,48.5453572 28.9548847,48.5732924 29.2558844,48.5813255 C29.9422494,48.4748338 30.7785101,48.2554091 31.0625232,49.1006575 C30.8675643,49.5051855 30.7345044,49.9391188 30.6680606,50.387158 C30.6702624,50.6112848 30.7021161,50.8344548 30.7627316,51.0504545 C30.9709473,51.4285818 31.2375063,51.7695575 31.5516568,52.0596479 C32.1164802,52.5035317 32.6116853,53.0365026 33.0190578,53.6389513 C33.2594423,53.9527508 33.4487226,54.3050935 33.5791947,54.6815948 C33.6659765,54.9783736 33.5791947,55.5015096 33.7054228,55.7417342 C33.9499896,56.2796469 34.9677031,55.6184125 35.2832732,55.4026818 C35.9317957,55.0573945 36.3580462,54.3847641 36.4114363,53.6227667 C36.3649666,53.2141769 36.3944327,52.8013307 36.4982181,52.4067783 C36.6892528,52.0549161 36.9283958,51.7342363 37.2082508,51.4546373 C37.6473525,50.9337815 38.0017037,50.3404304 38.2575214,49.6977754 C38.6283163,48.3913509 37.4054821,47.0355964 36.151091,46.497332 C35.4582736,46.2795332 34.7216995,46.273097 34.0288821,46.4782837 C33.6274335,46.5617595 33.2340968,46.6816018 32.8533835,46.8363931 C32.9264893,46.6872221 33.0165361,46.5477655 33.1216181,46.4209709 C33.8316508,45.6071568 35.0465957,41.986864 36.8769022,39.2453553 C38.7072088,36.492563 38.5020882,33.2941265 39.2436779,31.6972801 C39.9852677,30.0977919 41.0739845,30.3025454 41.7840172,28.6907243 C42.4940499,27.0763607 41.3737761,25.5025744 42.1863691,23.6695018 C42.7736922,22.4807476 43.6508142,21.4716074 44.7267084,20.7466999 C43.6822359,19.6534693 42.3340105,18.9380813 40.8688639,18.6983643 C39.1095607,18.42375 36.9242377,19.3122891 35.4805045,19.3433529 C34.0367714,19.3744167 32.837605,18.6711033 31.6226601,18.8045965 C30.8309298,18.9056118 30.0703836,19.2026154 29.4057802,19.6699137 C28.8477324,20.2000486 28.4636715,20.8960636 28.3091741,21.6575392 C28.0780987,21.5455321 27.841072,21.4467463 27.5991414,21.3616095 C26.2185222,20.8680251 26.1790759,20.3890941 25.3270367,19.8379997 C24.4749974,19.2880062 23.6860722,19.8727923 24.2304306,21.3621315 C24.5530791,22.5502156 25.3177538,23.5540328 26.3605288,24.1588573 C26.8181054,24.4687438 27.1889003,24.7558891 27.4965811,24.9546701 C27.037118,25.623178 26.6181712,26.3193954 26.24219,27.0393116 C26.2065726,27.1282191 26.1826896,27.2215152 26.1711867,27.3166818 C25.3341507,27.5264601 24.4655799,27.551119 23.6229582,27.3895642 C20.5303712,26.8550881 21.8636549,26.4813467 19.3706511,26.3702982 C18.3820568,26.339576 17.3941903,26.5008402 16.459517,26.8449121 C20.4724209,19.4858188 28.0073911,14.7468198 36.1929779,14.4874651 C44.3785647,14.2273916 51.9538448,18.6488393 56.0320071,26.1222244 C53.7993028,25.3913527 51.3536305,26.0747831 49.7206052,27.8776114 C50.3964464,27.6470346 51.0914718,27.4874682 51.7954785,27.4014139 C53.6100066,27.1947535 56.655258,27.7120566 57.2627305,28.3530313 C57.8702029,28.9948694 58.4461183,29.7053062 57.1680594,29.7176134 C55.8900005,29.7299206 54.1385865,28.6646197 52.1741627,29.615029 C50.2097388,30.5614137 49.9809505,31.557132 49.0736865,33.0406529 C48.8685659,33.3755018 48.6950023,33.6600001 48.5451065,33.8775719 C49.6007852,34.6504951 50.7953438,35.1885974 52.0558239,35.4582146 C54.7223912,36.1459957 55.4245347,34.4052223 56.8761571,33.2543678 C57.404737,32.8472132 57.9096492,32.5661028 58.3514473,32.2851144 C58.8194041,34.2098666 59.0605725,36.1920452 59.0693693,38.1843028 C59.0650987,51.6568192 48.8711613,62.3203438 36.2694298,62.0334844 Z M36.0169737,56.8307371 C35.7960746,56.8261918 35.5278401,57.0261008 35.306941,57.0872253 C35.061637,57.1519223 34.8108017,57.1933791 34.557462,57.2111146 C33.9350556,57.2402212 33.3100835,57.1717819 32.7034877,57.0082899 C31.9697872,56.8293041 31.275533,56.5041951 30.5497218,56.3750515 C30.0684774,56.2918351 29.3742232,56.1636319 29.1217671,56.7785976 C29.035767,56.978728 29.0325327,57.2079764 29.1128022,57.4141089 C29.1930716,57.6202785 29.3499986,57.7858104 29.5477867,57.8729452 C30.785383,58.6821722 32.2701975,58.9630176 33.681755,58.6523086 C34.2436446,58.5003299 34.7763998,58.2545051 35.2596055,57.9241319 C35.4997301,57.7630362 35.7219159,57.5749513 35.9223027,57.3631393 C36.0800877,57.1938138 36.4982181,56.8570915 36.0169737,56.8307371 Z M44.7740439,25.8268732 C45.8548715,27.9063818 47.3774972,25.9567278 48.9474584,24.6920955 C50.5174197,23.4231456 50.6988725,21.1219098 50.2728528,20.7374845 C49.8468332,20.3534287 49.0500187,21.2953651 48.2374257,22.0692645 C47.4248327,22.8417991 46.5096794,22.9325471 45.3894056,23.2925293 C44.2691317,23.6516636 43.9535616,24.2292225 44.7740439,25.8268732 Z M40.3323948,34.0269932 C40.3876195,34.5224362 40.6006294,34.6206571 40.9161995,34.5696888 C41.2183146,34.1881372 41.666973,33.967411 42.1390336,33.968297 C42.9414868,33.9197481 43.6555119,34.491777 43.8225411,35.3173459 C43.9895703,36.1432218 43.5599607,36.9753646 42.80962,37.2786427 C43.3537821,37.2399816 43.8604621,36.9724676 44.2152538,36.5362715 C44.5700455,36.0997315 44.7430312,35.5313903 44.6951514,34.9598931 C44.6941225,34.6765822 44.6460646,34.3958538 44.5531448,34.1304096 C45.4840766,34.3585392 46.2572233,34.6626804 46.4544547,34.3707115 C46.651686,34.0786152 45.5629691,33.3360778 44.5847018,32.7191346 C43.7876979,32.1787371 42.8214748,31.9837958 41.8865775,32.1737205 C40.900421,32.4204124 40.2377238,33.085758 40.340284,34.0434769 L40.3323948,34.0269932 Z M51.2116739,46.0388175 C50.2097388,44.3599554 48.6871131,47.6354959 47.8350738,48.2933381 C46.3282266,49.4579767 44.466363,49.7175244 42.9831836,50.8590551 C41.184434,52.2318123 40.2377238,54.8193924 38.3048569,55.9051674 L37.9103943,56.416545 C37.7199129,56.5898795 37.6485858,56.8668811 37.7289415,57.1213238 C39.6775868,57.3601074 41.2081018,53.7785815 42.7622845,52.9352725 C45.2552883,51.5798046 46.6122397,52.1652441 49.0026832,50.3246458 C50.4700841,49.1824938 52.1899412,47.7043959 51.2116739,46.0388175 Z M14.8559505,55.7598452 C15.2185354,55.8236985 15.5404476,56.0408338 15.741595,56.3573039 C15.9666964,56.6477762 16.1354632,56.9788215 16.2386179,57.3321925 L17.3194455,56.4862573 L17.2642207,56.3724383 C17.0750595,55.9761851 16.8477615,55.5997071 16.585745,55.2486942 C15.1420118,53.3582193 13.5562721,53.5154675 12.4991123,54.3696902 C11.2683889,55.3463277 11.0711576,56.908811 12.3176595,58.5438995 C12.6277435,58.9405481 12.9887146,59.2939532 13.3905978,59.594342 L14.4793146,58.7543219 C14.1837442,58.5591265 13.9177817,58.3205359 13.6903894,58.0465995 C13.4012586,57.7728552 13.2493932,57.3819743 13.278669,56.9867253 C13.3079448,56.5914495 13.5151001,56.2355262 13.8402852,56.0216766 C14.1241937,55.7912666 14.4933656,55.6960392 14.8559505,55.7598452 Z M62.4933048,19.9219781 L61.4519235,18.11649 L59.810959,19.2250309 C59.4164964,19.494909 58.4303398,20.2318304 59.4243856,21.9585441 C59.6520721,22.3476954 59.9163952,22.7107311 60.2133109,23.0421139 L58.6749066,24.0629303 L59.716288,25.8695909 L64.1737156,22.8988786 L63.1638913,21.0860304 L61.4755913,22.2089572 C61.2813912,22.0482386 61.1135081,21.8542363 60.9785684,21.6346048 C60.8996758,21.4923858 60.7103338,21.1072237 61.0653501,20.8722535 L62.4933048,19.9219781 Z M47.6772888,67.5072213 L46.2098878,68.0504749 L46.2887804,69.2922121 L44.4269168,69.9838243 L44.2612425,64.1696126 L46.7542462,63.2422991 L50.3517453,67.7936728 L48.3952108,68.5639447 L47.6772888,67.5072213 Z M47.0303701,66.371109 L45.965321,64.9332212 L46.0442135,66.7397144 L47.0303701,66.371109 Z M8.42036876,23.7895637 L7.44210146,25.4773999 L11.9231968,28.1134849 L15.8204875,21.4135914 L11.3393922,18.8075854 L10.3532356,20.4988285 L13.5562721,22.363648 L13.0750277,23.1735822 L9.87199121,21.306877 L8.88583465,22.976535 L12.0888711,24.8471658 L11.6076267,25.6543822 L8.42036876,23.7895637 Z M53.9886907,63.4408303 L53.0656482,64.0858185 L53.9492445,65.4107255 L52.3319477,66.6019229 L49.278807,62.0349417 L51.748143,60.2083171 C53.0183127,59.2584409 54.1149188,59.6526162 54.6750557,60.4882473 C55.2351926,61.3248916 55.3061959,62.4522271 53.9886907,63.4408303 Z M53.0656482,61.6810499 C52.8841954,61.4083431 52.5528468,61.2073731 51.9374851,61.6522455 L51.590358,61.9110744 L52.3792832,63.0450128 L52.7342996,62.7865881 C52.9078631,62.6571921 53.436443,62.2353735 53.0656482,61.6810499 Z M67.5345371,36.8449138 L66.0276899,36.8476176 L66.0276899,38.0204256 C66.0276899,39.6011668 65.1362044,40.2793313 64.1421586,40.2604464 C63.1481128,40.2415981 62.2960735,39.5289913 62.3197413,37.9631059 L62.374966,34.6448333 L67.5897619,34.7165584 L67.5345371,36.8449138 Z M64.8285235,36.7479188 L63.5267969,36.7503987 L63.5267969,37.1826507 C63.5267969,37.4030144 63.5267969,38.0980078 64.1658263,38.1146909 C64.4892857,38.1145553 64.8206343,37.9361795 64.8285235,37.2147336 L64.8285235,36.7479188 Z M40.3639518,70.5025205 L38.0760686,70.6844331 L38.1865181,71.8916977 L36.182648,71.9976805 L35.9459704,69.3580658 L36.3404331,69.3223826 C36.82458,68.6854629 37.0117924,67.8504309 36.8532345,67.0358963 L36.6954494,65.3029864 L41.3185513,64.9788208 L41.6814569,68.9858479 L42.2258154,68.9464057 L42.4624929,71.6209624 L40.4428443,71.7447145 L40.3639518,70.5025205 Z M39.6539191,69.1232834 L39.4251308,66.5322309 L38.5415345,66.5869829 L38.6046485,67.2486092 C38.7160514,67.9304245 38.5959824,68.6239614 38.2654106,69.2076263 L39.6539191,69.1232834 Z M62.1935132,42.8126071 L67.4083091,42.9307557 L67.4083091,40.7688727 L62.185624,40.6713928 L62.1935132,42.8126071 Z M22.2975638,15.5066297 L24.3882156,14.3969634 L24.3014339,11.105251 L25.5794928,13.7711579 L27.3703531,12.8252544 L25.1376946,8.04184785 L23.086489,9.11753094 L23.2048278,12.4602768 L21.8320979,9.80677132 L20.0412376,10.7616221 L22.2975638,15.5066297 Z M44.1744607,6.36242551 C45.965321,6.7889014 46.7542462,8.09244726 46.3203374,9.80369492 C45.8864285,11.5133088 44.6083696,12.3484899 42.8332878,11.9030268 C41.058206,11.4595294 40.2692808,10.1946421 40.6874111,8.47061709 C41.1055415,6.74499455 42.3914897,5.9872964 44.1744607,6.36242551 Z M43.1409686,10.5927901 C43.8746691,10.7441661 44.1429037,9.85643839 44.277021,9.28790959 C44.4111383,8.71921245 44.5847018,7.79208511 43.8588906,7.64269089 C43.1330794,7.49357799 42.8569556,8.39786749 42.7228383,8.94907792 C42.588721,9.50840725 42.4072682,10.4416986 43.1409686,10.5927901 Z M24.0410885,61.8078813 L26.4788675,63.0112371 L25.9502876,68.6866561 L24.0410885,67.7046676 L24.1909843,66.5089975 L22.7709189,65.7834002 L21.9819937,66.6570995 L20.1753549,65.7430869 L24.0410885,61.8078813 Z M24.6643395,63.5046027 L23.4809516,64.7516997 L24.4907759,65.2687978 L24.6880072,63.5133927 L24.6643395,63.5046027 Z M58.2725548,14.2686435 C59.5900599,15.6008311 59.6295062,17.1864808 58.4697861,18.4778388 C57.310066,19.765986 55.8268865,19.7964476 54.5251599,18.4636049 C53.2234332,17.1346546 53.1682085,15.5521469 54.3279286,14.2726335 C55.4876487,12.9899307 56.9550496,12.9319805 58.2725548,14.2686435 Z M57.3968478,15.251643 C56.8603786,14.7015764 56.1976814,15.3662823 55.8189973,15.7961177 C55.4403132,16.2256037 54.8486192,16.9620899 55.3850884,17.4870135 C55.9215576,18.0125709 56.592144,17.3750331 56.9629389,16.9456914 C57.3337337,16.5160075 57.9412062,15.8021769 57.3889585,15.251844 L57.3968478,15.251643 Z M56.497473,58.0006976 L59.2981576,60.5915766 L60.591995,58.9922941 L57.7991996,56.4029762 L58.935252,55.0000585 L57.7597534,53.9091999 L54.185922,58.3119768 L55.3614206,59.404418 L56.497473,58.0006976 Z M63.3216763,47.063204 L66.1460287,48.109509 L66.7850581,46.0748329 L61.8384969,44.2491287 L61.0969071,46.6197998 L63.4636829,48.9798662 L60.7024445,47.9513181 L60.0634151,49.9627336 L64.9863086,51.8580349 L65.688452,49.4894977 L63.3216763,47.1055722 L63.3216763,47.063204 Z M67.0375142,49.4035078 C67.1006282,49.20005 67.313638,48.6152993 67.7238792,48.7560274 L67.8343287,47.752452 C66.7456119,47.537409 66.3038137,48.7742456 66.2012535,49.1046099 C66.0986932,49.4349003 65.7515661,50.6966917 66.7377226,51.2540873 L67.2110778,50.4096851 C66.8245044,50.183537 66.9822894,49.6070327 67.0454035,49.4121091 L67.0375142,49.4035078 Z M34.2734489,11.2704413 L35.9301919,11.1457157 L36.7822312,6.80770795 L36.8295667,6.80602546 L37.0031303,11.071614 L38.7861013,10.9343079 L38.5652022,5.49931428 L35.6304003,5.73920815 L35.1018204,8.71540664 L34.3128952,5.81229688 L31.3544255,6.04373622 L31.5832139,11.4428181 L33.2872924,11.3170353 L33.0585041,7.14492298 L33.1058396,7.1432514 L34.2734489,11.2704413 Z M32.3169143,66.7924772 L30.9757414,66.5044525 L31.2913115,64.6743714 L29.3189984,64.2570817 L28.4117344,69.5372515 L30.3761582,69.9575722 L30.7075068,68.0160847 L32.025012,68.2973571 L31.7646667,70.260569 L33.7369798,70.6838476 L34.5969083,65.3712336 L32.6324844,64.9596985 L32.3169143,66.7924772 Z M19.930788,60.8915587 L21.3114072,62.0508425 L22.2975638,60.8630951 L17.9821427,57.2571131 L17.0196539,58.4675168 L18.3529376,59.6101422 L16.0650544,62.4804865 L17.6429048,63.7961601 L19.930788,60.8915587 Z M6.59795145,28.2965492 C6.40435699,28.6845285 6.25101022,29.0910891 6.14037481,29.5097489 C5.56445939,31.7708945 6.66895472,32.9310239 7.96279212,33.2650582 C9.49330709,33.6546153 10.8502585,32.8560591 11.3472814,30.8463312 C11.4697606,30.362359 11.5255172,29.8640235 11.5129557,29.3656992 L10.1717828,29.028582 C10.2072182,29.3829005 10.1885927,29.7411993 10.116558,30.0908747 C10.0699433,30.4763786 9.85493583,30.821823 9.53083794,31.0318391 C9.20674005,31.2416999 8.80779446,31.2940802 8.44403652,31.174737 C8.09103777,31.086334 7.79172893,30.853244 7.61806283,30.5315443 C7.44439673,30.2099747 7.41208064,29.8287478 7.52888324,29.479333 C7.62309326,29.1273707 7.77799753,28.7941945 7.98645988,28.4951028 L6.65317622,28.1607339 L6.59795145,28.2965492 Z M34.1314424,50.7372073 C34.6363545,50.6046062 34.4470125,49.9947 34.9992601,49.6404989 C35.5515078,49.2858494 36.5771106,49.742521 36.3483223,48.64575 C36.1905373,47.8216289 35.1649344,47.8108996 34.0367714,48.6194344 C32.9086083,49.4258869 33.1768428,50.9699299 34.1314424,50.7372073 Z M5.07532574,40.9012252 L6.5900622,40.9054549 L6.5900622,39.800395 C6.5900622,38.3216819 7.37898744,37.6451437 8.38881175,37.6202425 C9.39863606,37.5952854 10.2664538,38.2330969 10.2980108,39.7181652 L10.3769034,42.8404186 L5.16999677,42.9571635 L5.07532574,40.9012252 Z M7.78133931,40.4868449 L7.78133931,40.9008203 L9.07517671,40.9044212 L9.07517671,40.4977979 C9.07517671,40.2904998 9.07517671,39.6367133 8.40459026,39.6597315 C8.09690941,39.6274622 7.75767156,39.8021576 7.78133931,40.4868449 Z M22.0608862,8.28592067 C21.8794334,8.38117555 21.3429642,8.64219185 21.1378437,8.25304954 L20.3962539,8.86831226 C21.0273941,9.78460884 22.1555572,9.23771793 22.4316811,9.0827719 C22.7078049,8.92773413 23.8123002,8.28233864 23.4809516,7.22374802 L22.5736876,7.51517707 C22.7472511,7.88970953 22.2344497,8.19899603 22.0608862,8.28592067 Z M4.94120845,37.2666876 L10.1560043,37.1155137 L10.1402258,35.0958818 L4.94120845,35.2591696 L4.94120845,37.2666876 Z M6.4243879,47.7566353 C5.90369724,46.1622918 6.63739771,45.6361391 7.09497435,45.4808348 C7.67377976,45.2863629 8.30908797,45.5575089 8.57815381,46.1143836 C8.40845383,45.4755745 8.75173012,44.8159782 9.36707905,44.5979824 C10.6135809,44.183456 11.1579393,45.5856705 11.3709492,46.2109604 L12.3413272,49.1327444 L7.46576922,50.7760093 L6.4243879,47.7566353 Z M9.58008887,47.5432438 L9.72209541,47.9915521 L10.739809,47.6512367 L10.5741347,47.1702748 C10.3769034,46.5534524 10.0061085,46.5579826 9.82465569,46.6121515 C9.39074681,46.7835509 9.59586737,47.3758749 9.67475989,47.5442342 L9.58008887,47.5432438 Z M7.63144352,48.1277939 L7.79711782,48.6152771 L8.74382811,48.2996103 L8.66493559,47.8524388 C8.44403652,47.2047046 8.08902016,47.2489084 7.94701362,47.2952442 C7.80500707,47.3415643 7.52099399,47.6092479 7.70244679,48.1285865 L7.63144352,48.1277939 Z M14.7948847,15.0692656 L13.303816,16.4554604 L16.7671978,20.3412496 L18.5107226,18.6929093 L17.5482338,15.5989227 L19.4889899,17.7750515 L20.9800586,16.3817853 L17.6192371,12.5212495 L15.8757123,14.180318 L16.8697581,17.3222604 L14.7948847,15.0692656 Z M23.8754142,70.4564243 C15.3450583,66.6810498 8.4901758,59.7792549 4.7834234,51.2376273 C2.78801754,46.7116287 1.84613115,41.8126155 2.0300743,36.899188 C2.28551999,32.1768346 3.52442961,27.5451313 5.66701967,23.2885146 C8.91486952,16.8036465 14.0405482,11.3810475 20.3489184,7.75528212 C25.2772114,4.90391967 30.7677489,3.2912397 36.3404331,3.08120414 C38.3286937,3.0032113 40.3133194,3.10120779 42.2731509,3.37529955 C42.6035465,3.46739529 42.9619392,3.38377895 43.234685,3.15079543 C43.5074308,2.91767689 43.6606958,2.56403585 43.6458808,2.20212672 C43.6764751,1.82805788 43.5647777,1.46234274 43.3354025,1.18570496 C43.1060274,0.909213308 42.7777991,0.74453573 42.4230467,0.727866302 C32.8718519,-0.568193381 23.0672957,2.26642442 15.2840184,8.46320606 C8.08982242,14.2105367 3.21126895,22.3349713 1.61983318,31.2642587 C0.0823765062,39.5891988 1.35063764,48.190814 5.22522153,55.7923467 C9.18512596,63.4394034 15.7030507,69.5495326 23.5914012,72.9997921 C23.7292944,73.0627131 23.8765038,73.0987684 24.02531,73.1060541 C24.2551787,73.1209564 24.477421,73.0388525 24.6406717,72.8786678 C24.8554266,72.6317741 24.9607113,72.3019966 24.9325741,71.9644721 C24.9912014,71.2723701 24.5377556,70.6254089 23.8754142,70.4564243 Z M62.2881843,61.9757695 C62.0742335,61.9844452 61.8748623,62.0862398 61.7359366,62.2576988 C55.1968592,69.6731096 45.987319,73.658916 36.3167653,73.3433018 C35.6495924,73.3588377 35.1210909,73.8990134 35.0939312,74.593165 C35.0151053,74.9364555 35.0904523,75.3045877 35.2990517,75.5955014 C35.5171801,75.8512801 35.8295501,75.99698 36.151091,75.9928156 L36.3167653,75.9997871 C46.2273203,76.3460965 55.6616377,72.2752819 62.3512983,64.677618 C62.7893663,64.2585598 63.0141354,63.6380181 62.9587707,63.0008984 C62.9035459,62.1609163 62.5327511,61.9820296 62.2881843,61.9757695 Z M62.5879758,63.6768161 C62.4075717,63.4538119 62.1496701,63.3207656 61.8779431,63.3104582 C61.2388178,63.2557345 60.6230232,63.5388504 60.2290894,64.0681175 L60.1265291,64.1834699 C54.7302804,69.7485475 47.5037252,72.5482018 39.9221537,73.3025979 C34.494348,73.8301645 27.4413563,72.2471766 21.6033095,69.3546285 C21.5690235,70.2008255 21.4312008,71.0353575 21.1930684,71.8384017 C26.9508671,75.0554544 33.4411146,76.5027378 39.8432611,75.9582698 C48.5214388,75.4378729 56.2134599,71.027075 62.248738,64.7931831 C62.5327511,64.4711379 62.8246534,64.013604 62.5879758,63.6768161 Z M55.1484108,5.63421022 C54.8272139,5.39461295 54.3803931,5.45407791 54.1070295,5.77248417 C53.9417306,5.99748895 53.8753762,6.28507401 53.9255767,6.55900111 C54.0275478,7.21991682 54.4280323,7.77619931 54.998515,8.04951204 L55.1247431,8.12926737 C61.5322908,12.3696538 66.3216969,18.9423613 68.6942572,26.7342962 C71.0482443,35.0305855 70.6180732,43.9864711 67.4793123,51.9538227 C67.1088757,52.6616046 67.1743102,53.5464937 67.6449866,54.195299 C67.8345676,54.4669883 68.1219546,54.6395173 68.4339119,54.6688457 C68.7722687,54.670839 69.0706245,54.4393615 69.1755016,54.0934242 C72.5184369,45.4106792 72.9068415,35.6698594 70.2721077,26.6800437 C67.691661,17.8444495 62.3459927,10.4065114 55.1484108,5.63421022 Z" id="0ffb0484-47f0-4f3c-863f-474bce63646b"></path>
            </g>
        </g>
    </g>
</svg>