<svg xmlns="http://www.w3.org/2000/svg" xmlns:xlink="http://www.w3.org/1999/xlink" x="0px" y="0px" stop-color="#0063de"
	 viewBox="0 0 56.7 56.7"  xml:space="preserve">
<g id="Layer_1">
</g>
<g id="fon">
	<circle id="XMLID_529_" cx="28.3" cy="28.3" r="28.3"/>
	<g id="XMLID_475_">
		<g id="XMLID_489_">
			<path id="XMLID_526_" class="st1" d="M18.9,44.9l-0.5,1.1c-0.2,0.4-0.5,1-1.2,1.3l-0.3-0.1l-0.8,1.8l1.4,0.6l0.4-0.8l1.6,0.7
				L19,50.3l1.4,0.6l0.8-1.8L20.9,49l1.2-2.6L18.9,44.9z M19.5,48.4l-1-0.4c0.5-0.3,0.7-0.6,0.9-1.1l0.2-0.4l0.6,0.3L19.5,48.4z"/>
			<path id="XMLID_523_" class="st1" d="M23.2,9.9l1.5-0.5l-2.6-3.3l-1.9,0.6l-0.1,4.2l1.4-0.5l0-0.9l1.1-0.4L23.2,9.9z M21.5,8.6
				l0-1.3l0,0l0.8,1L21.5,8.6z"/>
			<path id="XMLID_520_" class="st1" d="M29.4,6.7c0-0.7-0.6-1.4-1.8-1.3l-2.3,0.1l0.2,3.9l1.5-0.1l0-1.1l0.8,0
				C29.1,8.1,29.5,7.3,29.4,6.7z M27.3,7.2l-0.3,0l0-1l0.3,0c0.6,0,0.7,0.2,0.7,0.5C28,7.2,27.4,7.2,27.3,7.2z"/>
			<path id="XMLID_517_" class="st1" d="M32.4,48.4c-0.1-0.7-0.7-1.4-1.8-1.2l-2.3,0.2l0.4,3.9l1.5-0.1L30,50.1l0.8-0.1
				C32.1,49.9,32.4,49.1,32.4,48.4z M30.2,49.1l-0.3,0l-0.1-1l0.3,0c0.6-0.1,0.7,0.2,0.7,0.4C30.9,49.1,30.4,49.1,30.2,49.1z"/>
			<path id="XMLID_513_" class="st1" d="M24.2,46.9l-2,3.7l1.5,0.2l0.4-0.8l1.2,0.2l0.1,0.9l1.6,0.3l-0.8-4.1L24.2,46.9z M24.4,49.2
				L25,48l0,0l0.2,1.3L24.4,49.2z"/>
			<polygon id="XMLID_512_" class="st1" points="6.9,20 6.2,21.4 8.4,21.1 9.7,23.3 10.5,21.6 9.2,20.1 9.2,20.1 10.9,20.8 
				11.5,19.5 9.9,18.7 9.9,18.7 11.9,18.7 12.6,17.1 10.1,17.4 9,15.5 8.3,17 9.4,18.5 9.4,18.5 7.9,17.8 7.3,19.1 8.8,19.8 
				8.8,19.9 			"/>
			<path id="XMLID_509_" class="st1" d="M8,39.3l0.8,1.2l0.9-0.3l0.7,1l-0.6,0.7l0.9,1.3l2.5-3.4L12,38.2L8,39.3z M11,40.6l-0.5-0.7
				l1.3-0.4l0,0L11,40.6z"/>
			<path id="XMLID_506_" class="st1" d="M14.6,12.2c-0.9-0.9-2-0.8-3,0.2c-1,1-0.9,2.1,0,3c0.9,0.9,2,0.8,3-0.2
				C15.6,14.2,15.6,13.1,14.6,12.2z M13.9,14.6c-0.4,0.4-0.9,0-1.2-0.3c-0.3-0.3-0.8-0.8-0.4-1.2c0.4-0.4,0.9,0,1.2,0.3
				C13.8,13.7,14.3,14.2,13.9,14.6z"/>
			<polygon id="XMLID_505_" class="st1" points="18.8,9.1 17.4,10 17,9.4 18.6,8.4 18.1,7.6 15.2,9.4 16.1,10.8 15.4,11.2 
				15.9,11.9 16.6,11.5 17.3,12.7 18.6,12 17.8,10.8 19.2,9.9 			"/>
			<path id="XMLID_504_" class="st1" d="M5.6,32c0,0.3,0.1,0.6,0.3,1.1l1-0.1c-0.2-0.4-0.2-0.6-0.3-0.7C6.5,31.2,7.2,31,7.5,31
				c0.6-0.1,1,0.3,1.1,0.9c0,0.3,0,0.6,0,0.8l1-0.1l0-0.1c0-0.2,0-0.5,0-1c-0.2-1.7-1.3-2.2-2.3-2.1C6.1,29.6,5.4,30.5,5.6,32z"/>
			<polygon id="XMLID_503_" class="st1" points="9.7,36.2 10.2,37.5 11.3,37.1 9.8,33.2 8.7,33.6 9.2,34.8 6.6,35.8 7.1,37.2 			"/>
			<polygon id="XMLID_502_" class="st1" points="14.4,41.4 11.9,44.4 13,45.4 13.9,44.3 14.7,45 13.8,46.1 14.9,47.1 17.5,44.1 
				16.3,43.1 15.4,44.1 14.7,43.5 15.6,42.4 			"/>
			<polygon id="XMLID_501_" class="st1" points="48,16.5 46.2,19 45.1,19.5 45.7,20.8 46.8,20.3 49.9,20.5 49.3,19.1 47.5,19.2 
				47.5,19.2 48.7,17.9 			"/>
			<polygon id="XMLID_500_" class="st1" points="36.8,45.5 32.8,46.9 33.2,48 34.5,47.5 35.4,50.1 36.9,49.6 35.9,47 37.2,46.6 			
				"/>
			<path id="XMLID_499_" class="st1" d="M46.5,14.3c-1.1-1.4-2.3-1.2-3.1-0.6c-0.9,0.7-1.1,1.9-0.1,3.1c0.2,0.2,0.4,0.5,0.8,0.8
				l0.8-0.7c-0.4-0.2-0.5-0.4-0.6-0.5c-0.6-0.7-0.2-1.3,0.1-1.5c0.4-0.4,1-0.3,1.4,0.2c0.2,0.2,0.3,0.5,0.4,0.7l0.8-0.7l0-0.1
				C46.9,14.9,46.8,14.6,46.5,14.3z"/>
			<polygon id="XMLID_498_" class="st1" points="50.4,22 49.2,22.2 49.5,23.5 46.7,24 47,25.5 49.8,25 50,26.3 51.2,26.1 			"/>
			
				<rect id="XMLID_497_" x="33.9" y="7.9" transform="matrix(-0.2684 0.9633 -0.9633 -0.2684 53.8729 -23.6612)" class="st1" width="4" height="1.5"/>
			<path id="XMLID_494_" class="st1" d="M33.1,5.8l-1.5-0.4l-1.1,3.8l2.2,0.6c1.1,0.3,1.7-0.2,1.9-0.9c0.2-0.7-0.1-1.5-1.2-1.8
				l-0.8-0.2L33.1,5.8z M32.8,7.8c0.5,0.1,0.5,0.4,0.5,0.6c-0.1,0.5-0.6,0.3-0.7,0.3l-0.3-0.1l0.3-0.9L32.8,7.8z"/>
			<path id="XMLID_491_" class="st1" d="M39.3,45.2l-0.7-0.9l-1.2,0.9l2.4,3.1l1.9-1.4c0.9-0.7,0.9-1.5,0.4-2.1
				c-0.5-0.6-1.2-0.8-2.1-0.2L39.3,45.2z M40.9,45.8c0.3,0.4-0.1,0.7-0.2,0.8l-0.2,0.2L39.8,46l0.2-0.2
				C40.5,45.5,40.8,45.6,40.9,45.8z"/>
			
				<rect id="XMLID_490_" x="40.6" y="43" transform="matrix(0.6049 0.7963 -0.7963 0.6049 51.6814 -16.6375)" class="st1" width="4" height="1.5"/>
		</g>
		<path id="XMLID_476_" class="st1" d="M12.2,31.8c-0.2-0.7-1.3-2.8-0.9-0.7c0.4,2.2,1,4.8,2.3,6.8c1.6,2.4,1.5,0,0.8-1.1
			C13.4,35.3,12.6,33.7,12.2,31.8z M19.3,13.4c-0.9,0.5-1.2,1.4,0.1,0.6c6.1-3.9,14.1-3,19.7,2.4c1,0.9,1.1,2.1,1.8,1.9
			c0.6-0.1,0.4-0.7-0.4-1.6C35.1,10.7,26.2,9.4,19.3,13.4z M48,34.6c0-0.9,0.4-0.8,0.4-1.4c0-0.3-0.7-1.5-0.9-1.8
			c0.2-0.4,0.4-0.4,0.4-0.8l0-0.2c0-0.9-1.4-0.6-1.9-0.3c-3.3-4.3-2.5-9.6-7.8-11.7c-3.3-1.3-4.8-0.6-8.4-1.3
			c-0.9-0.2-8.3-1.2-8.4-1.2L18.6,16c-4.9,0.1-3.2,7.2-4.7,11.3c-0.1,0.4-0.3,0.8-0.6,1.2c-0.1,0.6-0.3,1.1-0.3,1.7
			c0,1.2,0.1,1.5,0.4,1.4c0.3-0.1,0.6-0.8,1-1.7c0.9-0.8,1-2.6,0.9-4.2c0-1.8,0.4-2.6,0.5-4.3c0-0.4,0.3-0.6,0.4-0.3
			c0.2,3.3,1.4,4.5,1.1,6.7c0.1,2-1.7,1.2-1.3,4.6c0.2,1.8,0.2,4.4,0.2,6.3c0.2,0.3,0.2,0.7,0.5,0.9c0.4,0.2,0.4,0.4,0.4,0.8
			c0.4,0.1,1.3,0.3,2,0c-0.1-0.3-0.4-0.7-0.8-1.1c-0.1-0.2-0.3-0.5-0.4-0.7c0-0.9-0.1-1.8-0.1-2.7c-0.1-0.7,0.3-2,0.7-2.4l2.1,5
			c0.3,0.4,0.4,0.5,0.7,0.9c-0.1,0,0,0.3,0,0.3c0.9,0.2,0,0.5,0.7,0.5c0.4,0.1,1.3,0.1,1.6,0c-0.1-0.9-0.5-0.9-0.8-1.4
			c-0.7-1.4-1.9-3.3-1.9-4.6c0-1.1,0.3-2.4,0.2-3.3c0.1,0.2,0.1,0.5,0.2,0.8c0.2,0.5,0.9,0.6,1,0.7c0.2,0.2,0.2,0.5,0.4,0.5
			c0.3,0,0.2-0.3,0.3-0.4c0-0.1,0.1-0.4,0.3,0c0.1,0.2,0,0.6,0.4,0.6c0.3,0,0.3-0.8,0.4-0.7c0.1,0,0.1,0.5,0.4,0.4
			c0.3,0,0.1-0.6,0.5-0.8c0.5-0.3,1-1.1,1.1-1.4c0.2-0.4,0.4-0.3,0.9-0.3c2.5,0.3,3.6-0.2,5.7-0.3c0.1,3.6-0.4,5.2-1,7.9
			c0.1,0.2,0.4,0.5,0.4,0.6c0,0.4-0.1,0.3-0.2,0.8c0.4,0.3,0.6,0.6,1.1,0.6l1.1,0c-0.2-1.4-0.9-3.3-0.1-4.9c1-2,0.8-1.9,1.3-4.2
			l1.6,1.7l1.4,5.7c-0.1,0.3,0,1.1,0.4,1.2l1.7,0c-0.1-1.4-1.2-2.4-1.2-3.3l0.1-4.2l0.8,0c0.4,0,0.4-0.1,0.6-0.2
			c1.2,1.6,0.8,2.6,2.3,4c0.5,0.5,0.9,1.2,1.5,1.6c1,0.7,1,0.2,1.7,1.3l1.7,0.1c0.3-0.2,0.6-0.2,0.6-0.8c0-1.3-0.5-1.5-0.5-2.8
			L48,34.6z M24.7,19c0,0.1-0.4,0.2-0.5,0.3c-0.4,0.1,0.2,0.5-0.2,0.9c-0.7,0.5-4.3,1.2-3.6,1.9c0.3,0.3-0.1,0.6-0.1,0.7
			c-0.1,0.3,0.4,0.4,0.5,0.4c1.1-0.4,2.2,0.2,2,1c-0.2,0.5,1.3,1,1.1,1.3c0,0.1-0.1,0.2-0.2,0.2c-0.1,0.1-0.2,0.3-0.3,0.4
			c-0.1,0.1,0,0.3-0.1,0.4c0,0-0.4,0.5-0.7,1.1c-0.3,0.7,0.9,1.9-0.2,2.2c-0.2,0.1-1.1-0.6-1.1-0.8c-0.1-0.5-0.8-1.1-0.8-1.5
			c-0.1-1.1-1.3-1.4-1.6-1.9c-0.1-0.2,0.1-0.7,0.1-1.1c-0.1-0.6-0.2-0.6-0.7-0.9c-0.8-0.5-1-1.4-1.1-2c-0.1-0.8-0.5-1.3-0.1-1.9
			c0.5-0.7,1.5-0.6,1.4-1c0-0.1-0.4-0.5-0.5-0.8c-0.1-0.2,0-0.5,0.2-0.5c0.2,0,1.1,0.5,1.7,0.4c0.1,0,0.8-0.4,1.4-0.4
			c0.5,0.1,0.9,0.6,1,0.7c0.3,0.3,0.9,0.6,1.2,0.4c0.2-0.1,0.5-0.1,0.7,0C24.4,18.5,24.8,18.8,24.7,19z M25.1,19.4
			c-0.1-0.2,0-1-0.4-1c-0.4,0-1.9-1.1-1.1-1.2c0.4,0,1.9,0.3,2.2,0.2c0.2,0,0.7,0.3,0.9,0.3c0.2,0,0.5,0.1,0.7,0.2
			c0.1,0,0.6,0.3,0.6,0.3c0.3,0.1-0.4,0.5-0.4,0.5c-1,0.2-0.3,0.5-1.3,0.9C26.2,19.7,25.4,20.3,25.1,19.4z M38.6,28.6
			c0.2,1-0.4,1.1-0.9,1.2C37.2,30,36.5,30.2,36,30c-0.3-0.1-0.6-0.5-0.8-0.6c-1.8-0.5-0.6-2,0.3-2.4c0.6-0.3,0.7,0.5,1.8,0.2
			c0.8-0.2,1.7-0.3,1.7,0C39.1,27.5,38.6,28.5,38.6,28.6z M39,22.5c-0.6,0.1-0.7,0.6-0.9,0.9c-0.4,0.5-0.9,0.5-0.7,1.4
			c0.1,0.2-0.2,0.6-0.4,0.9c-0.3,0.5-0.5,1-0.7,1c-0.4,0-0.6-0.8-0.7-1c-0.1-0.1,0.1-0.3,0-0.6c-0.2-0.4-0.3-0.2-0.4-0.2
			c-0.6,0-1.3,1.2-1.7,0.6c-0.5-0.7-0.4-1-1.1-1.2c-0.2-0.1-0.8,0.2-0.5,1c0,0.2-0.6,0.3-0.7,0.4c-0.1,0.1-0.4,0.2-0.5,0.4
			c-0.2,0.4-0.2,1.1-0.3,1.3c0,0.1-0.4,0.3-0.6,0.4c-0.2,0.3-0.3,0.5-0.4,0.6c-0.2,0.1-0.1,0.5-0.3,0.7c-0.2,0.2-0.7,0.3-0.8-0.2
			c-0.2-2-0.8-1.7-1.2-2.8c-0.1-0.4-0.2-1.3-0.5-1.3c-0.4-0.1-0.7-0.3-1-0.6c0-0.1-0.2-0.6-0.3-0.7c0-0.2,0.2-0.3,0.3-0.4
			c0.5-0.6,0.5-0.5,0.6-0.5c0.8-0.3,0.3-1.1-0.3-0.8c-0.8,0.5-0.7-0.4-0.6-0.6c0.8-1,1.6-0.6,1.7-0.7c0.2-0.2,0.4,0.2,0.6,0.1
			c0.5-0.2,0.7-0.7-0.1-0.3c-0.1,0.1-0.3-0.1-0.2-0.3c0-0.2,0.3-0.4,0.4-0.5c0.2-0.1,0.4,0,0.6-0.2c0,0,1.7-0.4,3.1-0.4
			c1.1,0,2,0.1,2.3,0.3c0.7,0.5,2.5-0.3,4.2,0.4c0.7,0.3,0.3,0.8,0.6,1.2C39.1,21.5,39.7,22.3,39,22.5z M47.2,44.7
			c-0.1,0-0.3,0.1-0.3,0.2v0c-4.8,5.2-11.6,8.3-18.7,8.3c0,0-0.6,0-0.8,0.8c0,0.3,0,0.5,0.1,0.6c0.1,0.1,0.3,0.2,0.5,0.2
			c0,0,0.1,0,0.1,0c7.2,0,14-3.1,18.9-8.4l0,0c0.1-0.2,0.5-0.5,0.4-1.1C47.5,44.9,47.4,44.7,47.2,44.7z M52.9,20.6
			c-1.9-6-5.8-11.1-11-14.6c-0.2-0.1-0.5-0.1-0.6,0c-0.1,0.1-0.1,0.3-0.1,0.4c0.1,0.6,0.5,0.8,0.7,1L42,7.5c4.7,3.1,8.3,7.7,10,13
			c1.7,5.4,1.4,11.7-0.9,17.2c-0.1,0.3-0.4,0.9,0.1,1.4c0.2,0.2,0.3,0.3,0.5,0.3c0.2,0,0.3-0.1,0.4-0.3
			C54.5,33.3,54.8,26.7,52.9,20.6z M19.1,51.4C12.9,49,7.8,44,5.1,37.9c-1.5-3.4-2.2-7-2-10.5c0.2-3.3,1.1-6.8,2.7-10
			c2.3-4.6,6.1-8.5,10.8-11c3.5-1.9,7.6-2.9,11.7-2.9c1.5,0,2.9,0.1,4.4,0.4c0.1,0,0.1,0,0.2,0c0.4,0,0.6-0.3,0.7-0.7
			c0-0.5-0.3-0.9-0.8-0.9c-1.4-0.2-2.9-0.4-4.4-0.4c-5.5,0-11,1.8-15.4,5.1C7.8,10.8,4.1,16.8,3,23.3c-1.1,6.2-0.2,12.5,2.6,17.8
			c2.8,5.4,7.6,9.7,13.4,12l0-0.1l0,0.1c0,0,0.1,0,0.3,0c0.1,0,0.3,0,0.4-0.1c0.1-0.1,0.2-0.3,0.2-0.6
			C19.8,51.7,19.3,51.5,19.1,51.4z M37.5,41.2c-5.2,3.7-11.8,3.4-17.2,0.5c-1.5-0.8-1.9,0.4-0.5,1.1c5.6,3,12.7,2.9,18.1-1
			C39.6,40.6,39.3,39.9,37.5,41.2z"/>
	</g>
</g>
</svg>
