<svg xmlns="http://www.w3.org/2000/svg" width="397" height="302" viewBox="0 0 397 302">
    <g fill="#FFF" fill-rule="evenodd">
        <path d="M335.83 272.556c-150.164 60.346-402.047-8.399-310.07-84.785 5.529-4.737 11.355-8.566 17.695-11.552-1.143 2.497-1.581 5.245-1.03 8.024-.418 2.169-.398 4.482-.016 6.827-21.354 17.729-20.897 40.366 15.63 59.927 71.252 36.116 190.857 24.039 190.6 21.688 0 0-46.578 3.443-92.393-1.014-84.579-8.581-150.553-41.626-112.521-75.565a32.856 32.856 0 0 0 4.084 7.728c.015 1.256.112 2.478.32 3.659-5.474 32.695 42.727 41.132 66.173 45.042 64.293 10.721 239.474 21.174 238.277-43.552a1.093 1.093 0 0 0-.258-.706c.318-3.312-.346-6.63-2.218-9.589 1.131-1.658 2.026-3.431 2.609-5.34 5.437 4.261 9.584 8.891 11.8 13.695 6.583 13.655-4.805 27.534-.716 21.872a23.921 23.921 0 0 0 2.42-4.207 22.509 22.509 0 0 0 1.96-7.709c.112-3.16-.295-6.914-1.968-10.723-2.333-5.539-6.927-10.795-12.924-15.564.456-3.086.222-10.916-2.893-11.19-.394-2.156-1.543-4.032-3.328-5.167.378-.346.738-.713 1.096-1.082.472.345 1.218.718 2.388 1.13 61.646 32.788 45.895 73.986-14.716 98.153M55.885 172.318c12.165 16.957 55.645 21.23 102.324 24.307 17.579 1.162 35.23 2.271 52.865 2.696-.29 1.111-.95 3.645-1.24 4.726-8.709.35-12.397.356-20.783.459 4.59 1.024 12.14 2.008 20.099 2.225-.398 1.635-.77 3.37-.992 5.12-11.867-2.901-26.17-1.058-38.311-1.906-14.352-1-28.66-2.57-42.923-4.455-15.246-2.018-30.433-4.494-45.608-6.995-14.413-2.376-30.9-3.41-34.463-15.273-.114-6.866 2.165-11.54 9.032-10.904m1.133-12.238c3.29 10.05 12.514 13.943 69.8 21.772 28.75 3.933 57.796 6.002 86.804 5.65-.033.257-.09.516-.128.774-29.688.79-47.297-.564-58.767-1.332-3.148-.2-5.855-.439-8.066-.652l-6.878-.605 6.822 1.072c2.197.353 4.889.758 8.026 1.133 18.228 2.249 34.577 3.647 58.361 3.314-.214 1.085-.449 2.172-.699 3.258-26.497-1.255-53.069-2.567-79.474-5.134-25.633-2.489-47.847-5.08-62.209-11.855-5.706-2.677-16.434-10.138-13.592-17.395m-.85-14.666c-4.775-5.121-6.04-10.87-6.586-16.138 4.56 5.608 13.976 8.633 19.88 10.483 11.052 3.46 58.921 13.926 86.245 17.303 13.687 1.69 28.96 3.827 42.898 2.127 3.062 2.262 6.112 3.052 9.747 5.92-21.137.34-35.16-.79-42.674-1.297 6.049 1.044 21.918 4.086 45.546 4.1.506.994.963 1.995 1.325 3.012-39.694 1.805-79.377-1.165-119.145-10.941-11.578-2.848-22.919-7.321-34.517-10.106-.085-1.99-1.426-3.078-2.719-4.463m20.918-39.8c-4.134 7.423-.024 20.31 17.123 21.798 15.51 1.367 27.549-.886 39.94 11.099 4.44 4.294 8.565 8.61 13.292 11.838-21.013-3.167-34.43-6.742-60.456-11.151-10.325-1.75-25.808-3.741-33.132-12.178-9.528-10.976 11.471-17.752 23.233-21.405m137 77.455c-41.977.423-81.902-4.064-123.479-11.818-9.62-1.791-27.735-2.511-31.778-13.573a1.02 1.02 0 0 0-.13-.241c.584-.655 2.675-2.3 2.863-2.74 14.426 6.33 76.102 25.262 152.202 21.003.384 2.416.464 4.88.322 7.37M100.903 97.806c12.129 1.258 24.733.328 33.391-5.435a20.153 20.153 0 0 0-.397 1.651c-7.44 4.83-14.563 6.221-14.429 6.956.037.275 1.9.442 4.92.01 2.406-.34 5.557-1.14 8.906-2.588-6.388 4.687-7.435 6.753.531 3.504 1.523 9.368 10.302 20.402 12.811 16.158 4.923-8.326 10.19-20.557 6.84-29.581 8.163 3.583 17.109 2.003 20.297.645-.236 9.283 3.996 18.038 13.857 21.747 7.576 2.85 14.279-.296 21.29-2.735-3.817 3.168-10.842 6.046-17.74 6.26a31.872 31.872 0 0 1-3.424-.048l-1.28-.1s.402.22 1.168.557c.766.338 1.912.757 3.395 1.09 8.954 2.087 15.02-2.659 17.59-4.039a21.08 21.08 0 0 0-1.021 1.842c-1.476.766-3.56 1.927-7.192 4.567 1.364.457 3.691.437 5.827-.459-2.136 10.816 5.972 20.657 16.552 22.855 12.103 2.51 26.992-4.818 28.432-18.745 4.146 2.118 15.99-1.048 20.94-7.262 5.447-6.842 5.283-17.178.22-24.19 18.856 8.23 10.835 15.139 15.595 25.644.869 1.92 2.42 3.62 3.195 5.596 2.271 5.835 1.551 12.114-5.613 14.55-1.496.512-3.02.79-4.56.946a227.68 227.68 0 0 0-3.261.154c-7.56-.036-15.382-2.185-22.407 1.819-2.752 1.568-4.357 3.656-6.056 6.242-.555.867-.388 2.123-.832 2.972-4.411 8.422-4.598 6.538-10.395 7.073-6.907.628-12.095 3.896-15.456 10.047-9.784 17.856 7.999 37.78-6.332 56.967-3.01 1.182-4.119-2.252-4.507-5.114-1.627-11.924 9.296-25.014 5.327-43.52.247-.904.032-1.918-.65-2.512-4.18-14.479-16.477-23.208-32.375-22.09-12.28.849-23.007 4.284-34.105-3.344-7.96-5.484-13.222-13.793-22.196-17.894-16.363-7.483-43.027-1.761-46.531-13.056-4.521-14.59 16.977-15.603 19.675-17.14m-20.852-8.563c6.51-3.802 11.99-9.424 18.913-12.63 12.38-5.733 22.562-.79 33.4 3.57-18.752-2.624-38.774 6.884-32.731 5.392 8.907-2.198 18.777-3.495 27.85-2.431-.971.537-2.592 1.793-2.742 2.853-1.94.418 1.112 3.426 5.648 3.817-17.336 9.585-34.077.363-50.338-.57m54.782-5.02c.8.125 1.6.242 2.401.354-2.116 1.099-4.244 1.912-8.478 1.716.865-.41 5.673-1.505 6.077-2.07m5.092-38.745c2.62 6.754 19.613 12.287 10.948 26.362-.787.868-1.46 1.816-2.064 2.804-.727.853-1.508 1.664-2.302 2.465-.145-1.976-.86-3.932-2.037-4.983.113-2.067-.415-4.184-.773-6.216-.573-3.245-1.175-6.459-2.201-9.595-.157-.484-.907-.414-.907.124.001 2.952.363 5.838.756 8.76.28 2.074.398 4.352 1.03 6.397a.487.487 0 0 0-.073.219c-1.892.674-3.39 2.136-4.168 3.958-4.949-7.458-7.058-12.845 1.79-30.295m2.573 27.667c.36 1.284 1.078 2.483 1.06 3.91-.015 1.285-.65 2.512-.887 3.746-2.394-2.35-2.137-5.215-.173-7.656m2.51 30.343c2.495-9.205-.27-15.926-2.522-17.86.776.022 1.548-.355 1.923-.778 11.683 3.436 4.684 20.613-.026 29.059-7.913-7.622-7.817-17.282-3.922-27.006.096-.069.18-.146.273-.217.525 2.076 5.127 8.11 3.968 16.718-.026.196.25.288.306.084m33.35-36.77c-1.432 10.464-2.938 11.96-3.974 17.113-1.424.9-2.775 1.923-4.287 2.676-8.814.299-11.676.397-20.355-4.304 3.254-1.02 6.467-2.133 9.776-3.076 3.34-.952 15.603-3.27 15.065-3.348-7.786-1.13-16.627.194-23.96 3.725 3.346-4.342 10.924-15.86 27.735-12.785m4.236 1.195c.735-4.85-.348-10.27.203-15.136 2.491-22.082 17.845-28.299 34.293-15.192-1.96.626-3.856 1.609-5.593 2.898-.433.32-.203 1.165.4.95 5.126-1.834 11.551-.95 16.1 2.042 6.68 4.395 6.485 16.34 8.239 13.213.84-1.492 1.111-3.141.997-4.822-.024-.345 5.623 1.355 6.11 1.599 1.85.919 3.5 2.22 4.823 3.807 4.068 4.874 3.447 9.243 3.429 11.782-.021 3.141-.697 6.285-2.248 9.036-3.746 6.638-16.304 15.693-22.58 18.837-6.628 3.317-14.053 5.485-21.104 7.732-2.506.8-4.79 2.331-7.37 2.67-13.108 1.712-22.377-7.73-20.616-20.892.404-.551.483-1.18.29-1.746 1.094-5.607 3.72-10.809 4.627-16.778m23.045-61.957c3.554 3.172 7.994 4.867 11.695 8.21l4.754 7.177c.674 3.086 1.605 5.962-.45 10.71-2.02-5.734-12.115-19.561-11.535-17.714 4.023 12.797 5.67 14.055 7.071 18.164.223.654.371 1.314.503 1.975a19.005 19.005 0 0 0-6.226-4.736c-3.814-7.834-6.605-14.994-5.812-23.786m27.396 2.864c1.715 3.627 5.265 6.983 6.27 11.339.808 3.5.155 6.473-.315 9.67-2.796.405-5.533 1.253-8.01 2.539 2.585-5.59 3.044-9.209 2.654-16.76-.002-.031-.053-.042-.058-.008-.79 5.267-3.868 11.974-6.879 16.12 1.11-4.133 1.056-9.278-.953-13.697 1.798-3.627 4.518-6.255 7.29-9.203m36.703 36.827c-10.499 8.383-19.418 4.787-23.782 4.251-2.654-1.295-5.761-1.631-9.182-.588-.655-2.295-1.912-4.533-3.393-6.407 7.37-.841 9.634-3.986 25.287 3.267.035.018.083-.018.058-.059-5.081-7.95-20.186-12.37-27.982-5.96a14.012 14.012 0 0 0-2.316-1.613c22.744-12.8 29.79 4.464 41.31 7.109m-20.62 72.84c-.499 15.674-16.23 21.414-27.563 17.872-15.68-4.9-14.272-26.393-.828-32.645 11.813-5.492 26.72 2.062 28.392 14.773m17.295-28.914c6.99 5.535 8.873 16.49 2.662 23.46-5.048 5.664-10.846 4.23-17.237 4.945.339-5.956-3.117-10.678-7.558-14.08-2.37-4.637-1.251-10.177 4.23-13.594-4.573-.35-9.959 4.944-7.963 11.1-11.316-7.21 10.721-23.818 25.866-11.83m23.623 13.224c6.907 1.726 13.943 2.594 20.718 5.032 8.344 2.998 15.239 7.705 22.76 12.165 2.176 4.604-2.199 10.876-6.756 13.786-3.684 2.352-7.906 3.685-12.002 5.107-30.766 10.68-42.656 10.97-63.47 14.657.367-.675.645-1.357.874-2.036 6.668-9.834 17.534-9.485 28.044-11.702 2.88-.059 5.726-.4 8.685-1.373 6.739-2.198 12.409-7.276 9.213-14.774-2.49-5.854-8.4-7.313-8.438-14.44-.012-2.282.4-4.332.372-6.422m39.24 45.576c-54.971 23.278-72.329 19.587-103.114 23.44.673-1.599 1.441-2.998 2.596-4.506 19.674-1.416 35.071-4.567 51.431-9.064-6.091 1.01-22.948 4.133-48.298 5.87 2.52-2.022 5.45-3.38 8.6-4.682 1.857-.239 38.796-.656 80.386-17.808 4.527-1.868 9.834-4.277 13.395-8.056-1.45 8.603-4.637 10.164-4.995 14.806m7.708-6.754c12.071.378 8.761 13.985 3.883 18.715-8.569 8.313-61.45 20.756-116.925 22.507.11-2.295.362-4.57.862-6.763 41.091 4.856 108.735-21.95 107.97-26.371 2.112-1.781 3.373-5.082 4.21-8.088m-110.923 64.372c9.3-1.098 17.766-3.255 22.1-4.735-8.296.813-12.855 1.305-22.902 1.967-.043-.108-.08-.222-.124-.33a65.62 65.62 0 0 0-.286-3.391c34.66.037 69.08-3.289 102.429-15.05 5.105-1.805 10.51-3.77 15.161-6.653 5.734 7.786 1.912 8.814-11.876 15.165-6.369 2.937-12.925 5.485-19.59 7.7-26.889 8.938-57.953 12.806-84.618 12.02.219-2.28.137-4.565-.294-6.693m93.747 5.382c-32.751 11.557-66.05 15.12-100.384 15.283 1.045-.57 1.977-1.344 2.673-2.237 29.004 1.11 57.079-3.738 81.047-12.577 2.728-.932 5.136-1.947 7.266-2.786 2.133-.828 3.94-1.616 5.408-2.28 2.937-1.318 4.562-2.045 4.562-2.045l-4.732 1.606a126.431 126.431 0 0 1-5.561 1.822c-2.182.67-4.64 1.503-7.409 2.252-22.242 6.584-50.124 11.43-79.279 12.013a22.902 22.902 0 0 0 1.923-4.515c7.45.01 14.862-.351 21.835-.735 18.446-.997 36.893-3.693 54.675-8.698 9.416-2.638 41.315-13.149 46.849-21.293.412 13.813-17.755 20.267-28.873 24.19m27.6 8.175c-23.422 51.573-204.828 39.082-259.114 23.296-15.138-4.403-30.966-11.609-36.103-25.803 5.362 7.675 14.729 13.047 23.17 16.347 19.168 7.494 40.873 9.052 61.124 11.411 57.005 6.636 119.09 11.572 174.594-6.458 12.03-3.908 27.925-8.648 36.33-18.793m-121.607 25.893c-14.679.103-86.98-2.509-129.603-11.388-16.799-3.501-34.025-9.013-42.08-23.87 1.3.888 2.372 1.642 3.743.584 19.69 13.323 49.4 13.273 71.776 15.679 53.207 5.718 120.404 10.859 180.379-6.803 11.231-3.307 29.89-8.622 38.652-19.075 9.167 33.795-89.484 44.638-122.867 44.873m-15.055-21.765c.185 1.1.729 2.205 1.617 2.965-43.626-.36-107.963-7.952-122.268-10.417-11.215-1.935-21.436-5.543-31.966-9.399-3.619-4.07-6.95-7.14-9.24-12.122 8.572 6.819 23.235 7.625 32.809 9.136 21.469 3.387 99.78 14.86 121.448 12.378 1.622.293 3.242.532 4.881.716.2 2.02.794 3.912 1.955 5.462-8.31-.268-3.095-.035-14.158-.648 7.427 1.12 7.491 1.19 14.922 1.929m138.707-69.916c8.696 32.657-91.709 41.54-125.213 41.09-.134-.959-.203-2.901-.247-3.948 11.65-.398 25.737-1.771 37.61-3.365 21.82-3.073 35.903-6.405 52.59-10.826-28.886 5.578-57.79 9.907-90.302 11.196-.004-.217-.01-.435-.013-.652 33.508-.975 69.093-5.613 101.773-15.103 9.658-2.806 21.532-7.311 23.802-18.392m2.1 15.014c5.785-10.065 3.02-22.297-6.495-29.713a2.52 2.52 0 0 0-2.659-.295c-1.342-.648-2.837-1.05-4.435-1.2.798-3.671 1.228-7.673.077-11.267.745-4.933-2.297-9.226-6.574-11.481-11-9.128-28.036-15.998-41.845-14.92-3.7-13.296-25.159-18.312-38.972-19.453.999-1.216 1.93-2.485 2.699-3.873 3.61-6.5 2.494-15.548-1.66-21.555 12.217 1.201 27.518-10.911 22.123-12.049-10.942-2.305-17.55-12.65-29.092-13.384a27.42 27.42 0 0 0-2.147-.042c1.426-3.806 1.248-8.61.124-12.094-.81-2.514-7.63-10.137-6.614-12.13 1.027-2.015-1.405-3.904-3.105-2.395-3.34 2.965-7.663 6.647-9.809 10.975-5.658-7.016-12.855-6.77-17.22-12.894-4.162-5.84-7.889 15.074.331 27.098-11.561-2.037-23.535 4.805-26.03 22.402-.614 4.336-.98 8.522-1.449 12.664-7.009-1.329-16.199.303-23.028 4.632 4.222-17.678-14.844-15.564-14.028-26.27.078-1.035-1.463-1.72-2.14-.886-8.644 10.642-12.224 24.665-5.852 35.65-8.478-4.547-18.814-7.108-27.7-5.66-11.483 1.874-21.88 11.013-30.473 18.583-.922.047-1.84.117-2.752.24-.921.124-.653 1.35 0 1.614 4.435 1.784 10.31 3.591 16.785 4.958-2.206 1.02-7.608 4.233-9.37 5.772-13.99 1.853-34.435 7.28-33.24 21.302-4.021 7.63 1.483 21.574 5.817 26.083-.689 1.18 1.709 2.096 5.725 4.07-4.69 2.767-6.536 8.165-5.266 13.432-2.933-.077-21.95 9.224-31.17 16.603-67.486 54.285 26.025 124.216 192.154 118.09 176.806-6.208 229.6-84.898 137.29-132.607"/>
        <path d="M252.169 125.306c-.738 12.972-16.96 17.025-24.405 19.9 19.779.268 27.091-11.975 24.405-19.9M261.795 125.245c7.44-.095 14.978-6.21 15.26-15.384-4.304 8.306-11.842 13.473-18.202 14.68l-1.03.24s.373.082 1.038.232c.677.156 1.678.26 2.934.232M234.266 113.655c-.03.033.553.022 1.14.485.954.754-.27 2.557-1.484 3.122-.859.421-2.62.056-3.553-.142-4.254-.865-4.152.56-6 .694-.137.003-.033-.008-.067-.01l.001-.01c-.321-1.386-.277-2.412-1.48-3.336-.143-.112-1.4-.862-1.35-.996.08-.53 2.424-.858 2.949-1.027 1.996-.552 2.196-2.028 3.117-3.637.454-.893 1.409-1.272 1.977-1.221.619.068.79.501.796.466-.026.038-.013-.464-.712-.788-2.889-1.158-3.728 3.197-5.68 3.21-1.848.327-2.958-.272-4.5 1.367-.603.652-.909 1.61-.658 2.514.408 1.346 2.26 2.468 2.266 2.485.513.893-.048 1.69.893 2.85.504.724 1.64 1.258 2.816 1.064 2.024-.292 1.774-1.453 5.326-1.244 4.849.332 6.521-1.971 6.498-4.157.002-2.097-2.295-1.69-2.295-1.69M254.697 102.524c.997.048 2.359-.233 3.3-.797 2.557-1.458 1.59-4.404.756-7.581-.501 3.051.475 6.588-3.82 5.847-4.36-.937-6.454-2.532-6.454-2.532-.088-.184-.237-.423-.237-.423.149-.33 1.697-.802 2.042-.926.902-.335 1.763-.658 2.267-1.477.421-.87.82-3.266 1.332-3.797 1.27-1.378 2.216-.147 2.216-.147s-.172-1.113-1.664-.98c-2.401.191-2.067 2.127-3.51 3.79-.108.058-3.062.66-3.706.927-3.396 1.185-2.814 7.332 7.478 8.096M94.719 121.307c6.922 1.173 14.243-1.464 20.312.777-4.878-3.971-14.102-2.766-19.796-3.745-9.412-1.637-11.172-8.717-7.82-12.777-5.547 3.557-3.642 13.849 7.304 15.745M159.876 146.545c7.208 1.328 15.165-.783 21.665-1.201 5.93-.399 10.95.274 15.706 3.595-4.052-4.517-9.745-6.028-15.763-6.135-3.43-.07-7.102.38-10.857.807-3.746.423-7.275.724-10.396.418-5.722-.555-10.615-2.747-13.688-7.633 2 5.786 7.305 9.039 13.333 10.15"/>
        <path d="M244.796 147.405c3.902-3.97 6.946-7.716 11.409-10.116 3.535-1.907 7.264-2.652 10.034-2.765a25.442 25.442 0 0 1 3.335.091l1.25.151s-.386-.232-1.121-.602a15.96 15.96 0 0 0-3.328-1.138c-9.97-2.3-17.861 4.43-21.579 14.379M286.623 122.327c.755.46 1.404.742 1.874.877.46.129.721.205.721.205l-.452-.591c-.294-.356-.675-.91-1.096-1.574-.856-1.333-1.735-3.19-2.456-5.284-1.368-4.065-1.363-6.342-1.37-8.344-2.199 2.968-2.506 6.283-1.479 9.314.9 2.632 2.752 4.497 4.258 5.397M219.065 198.632c.242 7.829-1.587 13.771-4.935 19.543 7.27-3.952 9.343-12.783 4.935-19.543M205.85 99.662a1112.61 1112.61 0 0 1 25.055-11.764c-9.206-.392-19.895 4.982-25.055 11.764M245.116 59.103c3.262 7.81 1.4 15.11-5.111 20.423 9.737-1.193 12.74-15.056 5.111-20.423M156.225 109.015c2.393-3.229 3.928-7.746 3.485-12.874-.02-.222-.043-.48-.053-.473-.13-.486-.054-.232-.185-.49 0 0 5.567.385 8.92-1.034-4.84-.14-8.859-1.568-12.314-2.684.354 2.246 1.955 8.68-1.175 16.832-.471 1.288-.983 2.294-1.33 3.005l-.585 1.088.958-.8c.58-.553 1.428-1.378 2.28-2.57M194.991 45.728c-.125 2.221-2.538 4.993-4.832 5.365 2.983 5.097 9.505-3.243 4.832-5.365M206.708 59.015c.036.388.298.97.812 1.462 3.262 3.361 8.504-2.546 4.924-4.907-.507 2.186-3.529 4.034-5.736 3.445M225.916 71.952c.888 1.238 3.604 1.368 4.921-.656 1.232-2.002.054-4.443-1.512-4.728.131 1.803-1.62 4.692-3.41 5.384M193.273 71.78c.013.415.403 1.013 1.188 1.299 3.628 1.325 6.19-4.368 2.094-7.07-.5 1.847-.759 6.493-3.282 5.77M212.08 80.257c1.625-1.607.986-4.164-.45-4.69-.28 1.615-2.584 3.839-4.22 4.055.449 1.388 2.957 2.234 4.67.635M208.97 42.78c-.222-.837-.696-1.137-.696-1.137-.69 1.037-1.296 1.108-2.151 1.624-.834.545-1.16 1.06-2.394 1.232.349 3.054 6.306 1.844 5.242-1.72M228.072 55.489c1.855-1.311 1.527-3.948.127-4.54-.397 1.401-2.8 3.146-4.393 2.982.033 1.519 2.363 2.798 4.266 1.558M194.228 88.504c.638 1.256 3.203 1.687 4.726.036 1.49-1.68.805-4.189-.51-4.698-.366 1.509-2.701 4.13-4.216 4.662M183.688 89.091c-.182 1.447-.697 1.781-1.073 2.945-.4 1.153-.192 1.736-.916 2.997 0 0 .12.052.354.105 3.577.892 5.037-5.21 1.635-6.047M193.073 102.484c.998 2.995 7.206 2.14 6.861-2.106-.059-1.02-.478-1.51-.478-1.51-1.044 1.47-4.37 3.46-6.383 3.616M235.212 81.296c-7.88.878-19.022 4.815-24.876 9.708 8.4-1.726 17.66-4.724 24.876-9.708M127.925 215.575c-25.318-2.592-39.68-4.595-53.52-6.43 12.453 3.326 32.954 7.351 53.214 9.426a375.456 375.456 0 0 0 38.191 1.888c9.789-.025 15.831-.372 15.831-.372l-15.775-1.133c-9.736-.724-23.153-1.876-37.941-3.38M158.919 252.158c50.314 5.858 98.681 4.555 155.916-8.651-64.935 9.84-110.033 10.467-155.916 8.65M312.57 224.867c-10.008 2.439-23.9 5.423-39.361 7.99-23.324 3.838-39.55 5.19-56.484 6.39 18.521.636 36.144.01 56.974-3.42 15.598-2.588 29.441-6.337 39.277-9.51 4.925-1.584 8.87-2.969 11.572-3.996l4.195-1.588-4.337 1.14c-2.784.757-6.83 1.779-11.836 2.994M317.696 252.253c-45.894 8.348-74.05 10.886-110.201 12.643 38.708 2.29 72.305-1.436 110.2-12.643"/>
    </g>
</svg>
