<?xml version="1.0" encoding="UTF-8"?>
<svg width="121px" height="120px" viewBox="0 0 121 120" version="1.1" xmlns="http://www.w3.org/2000/svg" xmlns:xlink="http://www.w3.org/1999/xlink">
    <!-- Generator: sketchtool 52.6 (67491) - http://www.bohemiancoding.com/sketch -->
    <title>851B4A74-D267-4F8B-BDE8-9F75FC63A1F7</title>
    <desc>Created with sketchtool.</desc>
    <g id="Design" stroke="none" stroke-width="1" fill="none" fill-rule="evenodd">
        <g id="главная-вариант-2" transform="translate(-835.000000, -747.000000)" fill="#0295D4">
            <g id="Group-11" transform="translate(115.000000, 747.000000)">
                <g id="prize" transform="translate(720.000000, 0.000000)">
                    <g>
                        <path d="M57.48,112 L65.55,112 C66.6545695,112 67.55,111.104569 67.55,110 C67.55,108.895431 66.6545695,108 65.55,108 L57.48,108 C56.3754305,108 55.48,108.895431 55.48,110 C55.48,111.104569 56.3754305,112 57.48,112 Z" id="Path"></path>
                        <path d="M27.23,30 C28.3345695,30 29.23,29.1045695 29.23,28 L29.23,16 L93.78,16 L93.78,32 C93.78,33.1045695 94.6754305,34 95.78,34 C96.8845695,34 97.78,33.1045695 97.78,32 L97.78,8 C97.78,4.4 93.13,-1.21175856e-15 87.7,-1.21175856e-15 L35.29,-1.21175856e-15 C32.6240012,-0.0213286746 30.0598616,1.02281644 28.1671597,2.90049694 C26.2744577,4.77817744 25.2099147,7.33391584 25.21,10 L25.21,28 C25.2099733,28.5339165 25.4234302,29.0456789 25.8028397,29.4213319 C26.1822493,29.7969849 26.6961102,30.0053392 27.23,30 Z M29.23,10 C29.2299444,8.4 29.8689444,6.86625 31.005,5.73958333 C32.1410556,4.61291667 33.6800556,3.98666667 35.28,4 L87.73,4 C91.22,4 93.78,6.8 93.78,8 L93.78,12 L29.24,12 L29.23,10 Z" id="Shape" fill-rule="nonzero"></path>
                        <path d="M95.8,88 C94.6954305,88 93.8,88.8954305 93.8,90 L93.8,100 L29.24,100 L29.24,92 C29.24,90.8954305 28.3445695,90 27.24,90 C26.1354305,90 25.24,90.8954305 25.24,92 L25.24,110 C25.2399147,112.666084 26.3044577,115.221823 28.1971597,117.099503 C30.0898616,118.977184 32.6540012,120.021329 35.32,120 L87.73,120 C90.399922,120.001109 92.962326,118.948116 94.86,117.07 C96.7611913,115.206594 97.840918,112.662038 97.86,110 L97.86,90 C97.8602435,89.4590058 97.6413136,88.9409895 97.2531619,88.5641432 C96.8650103,88.187297 96.3407508,87.9837701 95.8,88 Z M93.8,110 C93.8000556,111.6 93.1610556,113.13375 92.025,114.260417 C90.8889444,115.387083 89.3499444,116.013333 87.75,116 L35.29,116 C33.6900556,116.013333 32.1510556,115.387083 31.015,114.260417 C29.8789444,113.13375 29.2399444,111.6 29.24,110 L29.24,104 L93.78,104 L93.8,110 Z" id="Shape-2" fill-rule="nonzero"></path>
                        <path d="M56.47,6 L52.47,6 C51.3654305,6 50.47,6.8954305 50.47,8 C50.47,9.1045695 51.3654305,10 52.47,10 L56.47,10 C57.5745695,10 58.47,9.1045695 58.47,8 C58.47,6.8954305 57.5745695,6 56.47,6 Z" id="Path-2"></path>
                        <path d="M68.57,6 L64.57,6 C63.4654305,6 62.57,6.8954305 62.57,8 C62.57,9.1045695 63.4654305,10 64.57,10 L68.57,10 C69.6745695,10 70.57,9.1045695 70.57,8 C70.57,6.8954305 69.6745695,6 68.57,6 Z" id="Path-3"></path>
                        <path d="M52.44,61 C52.4950413,48.5372299 43.7344193,37.7729844 31.5202177,35.295698 C19.3060161,32.8184116 7.04377881,39.3187973 2.23881095,50.8181865 C-2.5661569,62.3175757 1.42585806,75.6097274 11.7714771,82.5589601 C22.1170961,89.5081929 35.9317703,88.176933 44.76,79.38 C49.6483395,74.50899 52.4095227,67.9008457 52.44,61 Z M4,61 C3.95699588,50.4570536 11.3704634,41.3532018 21.7035666,39.2597487 C32.0366697,37.1662956 42.4089355,42.6668156 46.4728257,52.3951435 C50.5367159,62.1234714 47.1593737,73.3677223 38.4076386,79.2467273 C29.6559035,85.1257323 17.9694238,84.0006502 10.5,76.56 C6.36098824,72.4369324 4.02382976,66.8421346 4,61 Z" id="Shape-3" fill-rule="nonzero"></path>
                        <path d="M17.67,67.34 L21.38,67.34 L21.38,70.48 C21.3736108,70.6222468 21.4281726,70.7604702 21.53,70.86 C21.6302322,70.960765 21.7679658,71.0151335 21.91,71.01 L24.67,71.01 C24.8085929,71.0123588 24.9421756,70.9582036 25.04,70.86 C25.1428904,70.7645828 25.2009495,70.630321 25.2,70.49 L25.2,67.34 L33.57,67.34 C33.7120342,67.3451335 33.8497678,67.290765 33.95,67.19 C34.0518274,67.0904702 34.1063892,66.9522468 34.1,66.81 L34.1,64.73 C34.1063892,64.5877532 34.0518274,64.4495298 33.95,64.35 C33.8497678,64.249235 33.7120342,64.1948665 33.57,64.2 L25.2,64.2 L25.2,62.27 L30.83,62.27 C32.8244186,62.3484382 34.7678375,61.6286534 36.23,60.27 C39.0207746,57.4076693 39.0207746,52.8423307 36.23,49.98 C34.7690244,48.6194193 32.8247735,47.8993264 30.83,47.98 L21.9,47.98 C21.7579658,47.9748665 21.6202322,48.029235 21.52,48.13 C21.4181726,48.2295298 21.3636108,48.3677532 21.37,48.51 L21.37,58.8 L17.67,58.8 C17.530363,58.7973142 17.3955154,58.8509117 17.2958228,58.9487233 C17.1961303,59.0465348 17.1399742,59.1803372 17.14,59.32 L17.14,61.75 C17.1336108,61.8922468 17.1881726,62.0304702 17.29,62.13 C17.3902322,62.230765 17.5279658,62.2851335 17.67,62.28 L21.37,62.28 L21.37,64.2 L17.67,64.2 C17.5279658,64.1948665 17.3902322,64.249235 17.29,64.35 C17.1881726,64.4495298 17.1336108,64.5877532 17.14,64.73 L17.14,66.82 C17.1336108,66.9622468 17.1881726,67.1004702 17.29,67.2 C17.3902322,67.300765 17.5279658,67.3551335 17.67,67.35 L17.67,67.34 Z M25.2,51.49 L30.49,51.49 C31.5273746,51.4433547 32.5422311,51.8019612 33.32,52.49 C34.7476227,53.9604962 34.7476227,56.2995038 33.32,57.77 C32.5422311,58.4580388 31.5273746,58.8166453 30.49,58.77 L25.2,58.77 L25.2,51.49 Z" id="Shape-4" fill-rule="nonzero"></path>
                        <path d="M115.56,47.48 L109.56,47.48 C111.241564,45.3250058 111.514924,42.3883376 110.26,39.96 C108.981102,37.4926216 106.4291,35.9482938 103.65,35.96 C101.430225,35.8755367 99.3132918,36.8984091 98,38.69 C96.671759,40.6705633 95.6061921,42.8151428 94.83,45.07 C94.0543302,42.8149243 92.9887306,40.670279 91.66,38.69 C90.3206922,36.8907182 88.1698656,35.8809934 85.93,36 C83.1508996,35.9882938 80.5988979,37.5326216 79.32,40 C78.0650757,42.4283376 78.3384358,45.3650058 80.02,47.52 L74,47.52 C72.8392534,47.501297 71.7187669,47.9452196 70.8857845,48.7538128 C70.0528022,49.562406 69.5757884,50.6692101 69.56,51.83 L69.56,54.7 C69.5830065,56.5576076 70.7910526,58.1924966 72.56,58.76 L72.56,80.76 C72.578578,81.894802 73.050278,82.9750309 73.87,83.76 C74.7135911,84.56275 75.8355253,85.0072224 77,85 L112.63,85 C115.020246,85.0002253 116.967182,83.0800205 117,80.69 L117,58.69 C118.768947,58.1224966 119.976994,56.4876076 120,54.63 L120,51.79 C119.984212,50.6292101 119.507198,49.522406 118.674215,48.7138128 C117.841233,47.9052196 116.720747,47.461297 115.56,47.48 Z M97.5,46.21 C99.76,40.63 100.62,38.87 103.65,38.87 C105.23753,38.7934648 106.738345,39.5968435 107.555031,40.9603441 C108.371717,42.3238446 108.371717,44.0261554 107.555031,45.3896559 C106.738345,46.7531565 105.23753,47.5565352 103.65,47.48 L97,47.48 L97.5,46.21 Z M85.93,38.87 C88.93,38.87 89.82,40.64 92.08,46.21 L92.59,47.48 L85.93,47.48 C84.3424698,47.5565352 82.8416553,46.7531565 82.0249693,45.3896559 C81.2082833,44.0261554 81.2082833,42.3238446 82.0249693,40.9603441 C82.8416553,39.5968435 84.3424698,38.7934648 85.93,38.87 Z M88.93,82.14 L77,82.14 C76.6259478,82.1296327 76.2692774,81.9798312 76,81.72 C75.729523,81.457019 75.5748087,81.0972183 75.57,80.72 L75.57,59 L88.89,59 L88.93,82.14 Z M88.93,56.14 L74,56.14 C73.6127733,56.1453408 73.2392885,55.9966189 72.9617267,55.7265587 C72.6841648,55.4564986 72.5252682,55.0872277 72.52,54.7 L72.52,51.79 C72.5252682,51.4027723 72.6841648,51.0335014 72.9617267,50.7634413 C73.2392885,50.4933811 73.6127733,50.3446592 74,50.35 L88.88,50.35 L88.93,56.14 Z M97.79,82.14 L91.84,82.14 L91.84,50.35 L97.75,50.35 L97.79,82.14 Z M114.12,80.7 C114.115191,81.0772183 113.960477,81.437019 113.69,81.7 C113.420723,81.9598312 113.064052,82.1096327 112.69,82.12 L100.7,82.12 L100.7,59 L114.09,59 L114.12,80.7 Z M117.12,54.7 C117.114732,55.0872277 116.955835,55.4564986 116.678273,55.7265587 C116.400712,55.9966189 116.027227,56.1453408 115.64,56.14 L100.7,56.14 L100.7,50.35 L115.57,50.35 C116.356882,50.3661006 116.989383,51.0030246 117,51.79 L117.12,54.7 Z" id="Shape-5" stroke="#0295D4" fill-rule="nonzero"></path>
                    </g>
                </g>
            </g>
        </g>
    </g>
</svg>