<svg xmlns="http://www.w3.org/2000/svg" width="120" height="120" viewBox="0 0 120 120">
    <g fill="none" fill-rule="evenodd" transform="translate(2 2)">
        <rect width="4" height="28" x="56" y="20" fill="#0295D4" rx="2"/>
        <rect width="4" height="44" x="84" y="36" fill="#0295D4" rx="2" transform="rotate(90 86 58)"/>
        <rect width="4" height="28" x="56" y="68" fill="#0295D4" rx="2"/>
        <rect width="4" height="8" x="56" y="8" fill="#0295D4" rx="2"/>
        <rect width="4" height="8" x="56" y="100" fill="#0295D4" rx="2"/>
        <g fill="#0295D4" transform="rotate(90 19.5 88.5)">
            <rect width="4" height="28" rx="2"/>
            <rect width="4" height="28" x="12" y="12" rx="2"/>
            <rect width="4" height="8" y="32" rx="2"/>
            <rect width="4" height="8" x="12" rx="2"/>
        </g>
        <rect width="36" height="36" x="10" y="10" stroke="#0295D4" stroke-width="4" rx="4"/>
        <rect width="36" height="36" x="70" y="10" stroke="#0295D4" stroke-width="4" rx="4"/>
        <rect width="36" height="36" x="10" y="70" stroke="#0295D4" stroke-width="4" rx="4"/>
        <rect width="18" height="18" x="19" y="19" stroke="#0295D4" stroke-width="4" rx="2"/>
        <rect width="18" height="18" x="79" y="19" stroke="#0295D4" stroke-width="4" rx="2"/>
        <rect width="18" height="18" x="19" y="79" stroke="#0295D4" stroke-width="4" rx="2"/>
        <path stroke="#0295D4" stroke-linecap="round" stroke-width="4" d="M21 0H8a8 8 0 0 0-8 8v13M21 116H8a8 8 0 0 1-8-8V95M95 0h13a8 8 0 0 1 8 8v13"/>
        <rect width="51" height="10" x="69.895" y="90.395" stroke="#0295D4" stroke-width="4" rx="5" transform="rotate(45 95.395 95.395)"/>
        <circle cx="64" cy="64" r="30" fill="#FFF" stroke="#0295D4" stroke-width="4"/>
    </g>
</svg>
