<svg width="20" height="18" viewBox="0 0 20 18" version="1.1" xmlns="http://www.w3.org/2000/svg" xmlns:xlink="http://www.w3.org/1999/xlink">
<title>&#208;&#168;&#209;&#141;&#209;&#128;&#208;&#184;&#208;&#189;&#208;&#179;</title>
<desc>Created using Figma</desc>
<g id="Canvas" transform="translate(5415 -5003)">
<g id="&#208;&#168;&#209;&#141;&#209;&#128;&#208;&#184;&#208;&#189;&#208;&#179;">
<g id="Rectangle">
<use xlink:href="#path0_fill" transform="translate(-5415 5004)" />
</g>
</g>
</g>
<defs>
<path id="path0_fill" d="M 10 0L 20 8L 10 16L 10.0118 10C 3 10 0 16 0 16C 0 16 0 6 10.0118 6L 10 0Z"/>
</defs>
</svg>
