<svg width="32" height="32" viewBox="0 0 32 32" xmlns="http://www.w3.org/2000/svg">
<path d="M13.2766 0H18.0426V32H13.2766V0Z" />
<path d="M32 13.2766V18.0426L0 18.0425V13.2766L32 13.2766Z" />
</svg>
