<svg width="40" height="24" viewBox="0 0 40 24" xmlns="http://www.w3.org/2000/svg">
<path fill-rule="evenodd" clip-rule="evenodd" d="M34.123 15.011C34.7416 15.6417 35.472 16.3864 36.193 17.1215C37.3416 18.2926 38.7264 19.356 39.4487 20.8289C39.8291 21.9924 39.4487 23.156 38.6879 23.156H32.9818C32.6444 23.156 32.3258 23.1369 32.0216 23.0946C29.8734 22.7953 28.4141 20.8259 26.8954 19.2774C26.2627 18.6323 25.2846 17.7665 24.484 18.1854C24.2271 18.3198 24.0078 18.5722 23.8521 18.8896C23.4717 19.6653 23.4717 20.8289 23.4717 21.6046C23.4717 23.6812 20.5087 23.6348 18.4501 23.3618C16.6325 23.1208 14.9167 22.6043 13.2008 21.6046C10.9184 20.441 9.39681 18.5017 7.8752 16.1745C4.83197 12.2959 2.54955 7.64163 0.647534 2.98731C0.267131 1.82374 0.647534 1.43588 1.78874 1.43588C3.69076 1.43588 5.59278 1.43588 7.49479 1.43588C8.2556 1.43588 8.636 1.82374 9.01641 2.59945C10.1576 5.31447 11.2988 7.64163 12.8204 9.96879C13.0981 10.535 13.3758 10.8946 13.8014 11.1984C14.1408 11.4406 14.3964 11.7736 14.8134 11.775C15.4021 11.777 15.4455 10.8098 15.6548 10.2595C15.7557 9.99423 15.8637 9.78758 15.8637 9.58093C15.8637 7.64163 15.8637 6.09019 15.8637 4.15089C15.8637 2.98731 15.1029 2.21159 13.9616 2.21159C13.3312 2.21159 13.7812 1.09573 14.3614 0.849176C14.6328 0.733876 14.9857 0.660156 15.4833 0.660156H19.8954C21.246 0.660156 23.0913 0.860986 23.0913 2.21159V9.58093C23.0913 9.82678 23.2442 10.3843 23.453 10.8584C23.6532 11.313 24.3246 11.5779 24.7158 11.2718C25.0972 10.9734 25.1876 10.5546 25.5068 10.1904C26.779 8.73912 27.7882 6.98452 28.7974 4.92661C28.9128 4.69134 29.0281 4.42039 29.1435 4.13541C29.6507 2.88269 30.4891 1.43588 31.8406 1.43588H37.9271H38.3075C38.5543 1.43588 38.7656 1.47217 38.9412 1.53691C40.0414 1.94239 39.3693 3.55499 38.81 4.58551C37.7645 6.51191 36.4398 8.3645 35.1205 10.1147C35.0087 10.263 34.8952 10.4104 34.7804 10.5581C34.0854 11.4528 33.1779 12.3781 33.213 13.5105C33.2278 13.9868 33.5116 14.3876 34.123 15.011Z" />
</svg>
